ISO-10303-21;
HEADER;
FILE_DESCRIPTION(('Open CASCADE Model'),'2;1');
FILE_NAME('Open CASCADE Shape Model','2020-09-05T18:49:51',('Author'),(
    'Open CASCADE'),'Open CASCADE STEP processor 6.8','Open CASCADE 6.8'
  ,'Unknown');
FILE_SCHEMA(('AUTOMOTIVE_DESIGN { 1 0 10303 214 1 1 1 1 }'));
ENDSEC;
DATA;
#1 = APPLICATION_PROTOCOL_DEFINITION('international standard',
  'automotive_design',2000,#2);
#2 = APPLICATION_CONTEXT(
  'core data for automotive mechanical design processes');
#3 = SHAPE_DEFINITION_REPRESENTATION(#4,#10);
#4 = PRODUCT_DEFINITION_SHAPE('','',#5);
#5 = PRODUCT_DEFINITION('design','',#6,#9);
#6 = PRODUCT_DEFINITION_FORMATION('','',#7);
#7 = PRODUCT('PCB','PCB','',(#8));
#8 = PRODUCT_CONTEXT('',#2,'mechanical');
#9 = PRODUCT_DEFINITION_CONTEXT('part definition',#2,'design');
#10 = SHAPE_REPRESENTATION('',(#11,#15,#19),#23);
#11 = AXIS2_PLACEMENT_3D('',#12,#13,#14);
#12 = CARTESIAN_POINT('',(0.E+000,0.E+000,0.E+000));
#13 = DIRECTION('',(0.E+000,0.E+000,1.));
#14 = DIRECTION('',(1.,0.E+000,-0.E+000));
#15 = AXIS2_PLACEMENT_3D('',#16,#17,#18);
#16 = CARTESIAN_POINT('',(0.E+000,0.E+000,0.E+000));
#17 = DIRECTION('',(0.E+000,0.E+000,1.));
#18 = DIRECTION('',(1.,0.E+000,-0.E+000));
#19 = AXIS2_PLACEMENT_3D('',#20,#21,#22);
#20 = CARTESIAN_POINT('',(0.E+000,0.E+000,0.E+000));
#21 = DIRECTION('',(0.E+000,0.E+000,1.));
#22 = DIRECTION('',(1.,0.E+000,-0.E+000));
#23 = ( GEOMETRIC_REPRESENTATION_CONTEXT(3) 
GLOBAL_UNCERTAINTY_ASSIGNED_CONTEXT((#27)) GLOBAL_UNIT_ASSIGNED_CONTEXT(
(#24,#25,#26)) REPRESENTATION_CONTEXT('Context #1',
  '3D Context with UNIT and UNCERTAINTY') );
#24 = ( LENGTH_UNIT() NAMED_UNIT(*) SI_UNIT(.MILLI.,.METRE.) );
#25 = ( NAMED_UNIT(*) PLANE_ANGLE_UNIT() SI_UNIT($,.RADIAN.) );
#26 = ( NAMED_UNIT(*) SI_UNIT($,.STERADIAN.) SOLID_ANGLE_UNIT() );
#27 = UNCERTAINTY_MEASURE_WITH_UNIT(LENGTH_MEASURE(1.E-007),#24,
  'distance_accuracy_value','confusion accuracy');
#28 = PRODUCT_RELATED_PRODUCT_CATEGORY('part',$,(#7));
#29 = SHAPE_DEFINITION_REPRESENTATION(#30,#36);
#30 = PRODUCT_DEFINITION_SHAPE('','',#31);
#31 = PRODUCT_DEFINITION('design','',#32,#35);
#32 = PRODUCT_DEFINITION_FORMATION('','',#33);
#33 = PRODUCT('Board','Board','',(#34));
#34 = PRODUCT_CONTEXT('',#2,'mechanical');
#35 = PRODUCT_DEFINITION_CONTEXT('part definition',#2,'design');
#36 = SHAPE_REPRESENTATION('',(#11,#37),#41);
#37 = AXIS2_PLACEMENT_3D('',#38,#39,#40);
#38 = CARTESIAN_POINT('',(0.E+000,0.E+000,-0.79540354));
#39 = DIRECTION('',(0.E+000,0.E+000,1.));
#40 = DIRECTION('',(1.,0.E+000,-0.E+000));
#41 = ( GEOMETRIC_REPRESENTATION_CONTEXT(3) 
GLOBAL_UNCERTAINTY_ASSIGNED_CONTEXT((#45)) GLOBAL_UNIT_ASSIGNED_CONTEXT(
(#42,#43,#44)) REPRESENTATION_CONTEXT('Context #1',
  '3D Context with UNIT and UNCERTAINTY') );
#42 = ( LENGTH_UNIT() NAMED_UNIT(*) SI_UNIT(.MILLI.,.METRE.) );
#43 = ( NAMED_UNIT(*) PLANE_ANGLE_UNIT() SI_UNIT($,.RADIAN.) );
#44 = ( NAMED_UNIT(*) SI_UNIT($,.STERADIAN.) SOLID_ANGLE_UNIT() );
#45 = UNCERTAINTY_MEASURE_WITH_UNIT(LENGTH_MEASURE(1.E-007),#42,
  'distance_accuracy_value','confusion accuracy');
#46 = SHAPE_DEFINITION_REPRESENTATION(#47,#53);
#47 = PRODUCT_DEFINITION_SHAPE('','',#48);
#48 = PRODUCT_DEFINITION('design','',#49,#52);
#49 = PRODUCT_DEFINITION_FORMATION('','',#50);
#50 = PRODUCT('Open CASCADE STEP translator 6.8 2.1.1',
  'Open CASCADE STEP translator 6.8 2.1.1','',(#51));
#51 = PRODUCT_CONTEXT('',#2,'mechanical');
#52 = PRODUCT_DEFINITION_CONTEXT('part definition',#2,'design');
#53 = SHAPE_REPRESENTATION('',(#11,#54),#58);
#54 = AXIS2_PLACEMENT_3D('',#55,#56,#57);
#55 = CARTESIAN_POINT('',(0.E+000,0.E+000,0.E+000));
#56 = DIRECTION('',(0.E+000,0.E+000,1.));
#57 = DIRECTION('',(1.,0.E+000,-0.E+000));
#58 = ( GEOMETRIC_REPRESENTATION_CONTEXT(3) 
GLOBAL_UNCERTAINTY_ASSIGNED_CONTEXT((#62)) GLOBAL_UNIT_ASSIGNED_CONTEXT(
(#59,#60,#61)) REPRESENTATION_CONTEXT('Context #1',
  '3D Context with UNIT and UNCERTAINTY') );
#59 = ( LENGTH_UNIT() NAMED_UNIT(*) SI_UNIT(.MILLI.,.METRE.) );
#60 = ( NAMED_UNIT(*) PLANE_ANGLE_UNIT() SI_UNIT($,.RADIAN.) );
#61 = ( NAMED_UNIT(*) SI_UNIT($,.STERADIAN.) SOLID_ANGLE_UNIT() );
#62 = UNCERTAINTY_MEASURE_WITH_UNIT(LENGTH_MEASURE(1.E-007),#59,
  'distance_accuracy_value','confusion accuracy');
#63 = ADVANCED_BREP_SHAPE_REPRESENTATION('',(#11,#64),#993);
#64 = MANIFOLD_SOLID_BREP('',#65);
#65 = CLOSED_SHELL('',(#66,#106,#137,#168,#199,#230,#261,#292,#323,#354,
    #385,#416,#449,#482,#513,#546,#579,#610,#643,#676,#707,#740,#773,
    #804,#837,#870,#901,#923,#958));
#66 = ADVANCED_FACE('',(#67),#101,.T.);
#67 = FACE_BOUND('',#68,.T.);
#68 = EDGE_LOOP('',(#69,#79,#87,#95));
#69 = ORIENTED_EDGE('',*,*,#70,.T.);
#70 = EDGE_CURVE('',#71,#73,#75,.T.);
#71 = VERTEX_POINT('',#72);
#72 = CARTESIAN_POINT('',(30.75,28.5,0.E+000));
#73 = VERTEX_POINT('',#74);
#74 = CARTESIAN_POINT('',(30.75,28.5,0.79540354));
#75 = LINE('',#76,#77);
#76 = CARTESIAN_POINT('',(30.75,28.5,0.E+000));
#77 = VECTOR('',#78,1.);
#78 = DIRECTION('',(0.E+000,0.E+000,1.));
#79 = ORIENTED_EDGE('',*,*,#80,.T.);
#80 = EDGE_CURVE('',#73,#81,#83,.T.);
#81 = VERTEX_POINT('',#82);
#82 = CARTESIAN_POINT('',(30.75,31.5,0.79540354));
#83 = LINE('',#84,#85);
#84 = CARTESIAN_POINT('',(30.75,28.5,0.79540354));
#85 = VECTOR('',#86,1.);
#86 = DIRECTION('',(0.E+000,1.,0.E+000));
#87 = ORIENTED_EDGE('',*,*,#88,.F.);
#88 = EDGE_CURVE('',#89,#81,#91,.T.);
#89 = VERTEX_POINT('',#90);
#90 = CARTESIAN_POINT('',(30.75,31.5,0.E+000));
#91 = LINE('',#92,#93);
#92 = CARTESIAN_POINT('',(30.75,31.5,0.E+000));
#93 = VECTOR('',#94,1.);
#94 = DIRECTION('',(0.E+000,0.E+000,1.));
#95 = ORIENTED_EDGE('',*,*,#96,.F.);
#96 = EDGE_CURVE('',#71,#89,#97,.T.);
#97 = LINE('',#98,#99);
#98 = CARTESIAN_POINT('',(30.75,28.5,0.E+000));
#99 = VECTOR('',#100,1.);
#100 = DIRECTION('',(0.E+000,1.,0.E+000));
#101 = PLANE('',#102);
#102 = AXIS2_PLACEMENT_3D('',#103,#104,#105);
#103 = CARTESIAN_POINT('',(30.75,28.5,0.E+000));
#104 = DIRECTION('',(-1.,0.E+000,0.E+000));
#105 = DIRECTION('',(0.E+000,1.,0.E+000));
#106 = ADVANCED_FACE('',(#107),#132,.T.);
#107 = FACE_BOUND('',#108,.T.);
#108 = EDGE_LOOP('',(#109,#110,#118,#126));
#109 = ORIENTED_EDGE('',*,*,#88,.T.);
#110 = ORIENTED_EDGE('',*,*,#111,.T.);
#111 = EDGE_CURVE('',#81,#112,#114,.T.);
#112 = VERTEX_POINT('',#113);
#113 = CARTESIAN_POINT('',(31.5,32.25,0.79540354));
#114 = LINE('',#115,#116);
#115 = CARTESIAN_POINT('',(30.75,31.5,0.79540354));
#116 = VECTOR('',#117,1.);
#117 = DIRECTION('',(0.707106781187,0.707106781187,0.E+000));
#118 = ORIENTED_EDGE('',*,*,#119,.F.);
#119 = EDGE_CURVE('',#120,#112,#122,.T.);
#120 = VERTEX_POINT('',#121);
#121 = CARTESIAN_POINT('',(31.5,32.25,0.E+000));
#122 = LINE('',#123,#124);
#123 = CARTESIAN_POINT('',(31.5,32.25,0.E+000));
#124 = VECTOR('',#125,1.);
#125 = DIRECTION('',(0.E+000,0.E+000,1.));
#126 = ORIENTED_EDGE('',*,*,#127,.F.);
#127 = EDGE_CURVE('',#89,#120,#128,.T.);
#128 = LINE('',#129,#130);
#129 = CARTESIAN_POINT('',(30.75,31.5,0.E+000));
#130 = VECTOR('',#131,1.);
#131 = DIRECTION('',(0.707106781187,0.707106781187,0.E+000));
#132 = PLANE('',#133);
#133 = AXIS2_PLACEMENT_3D('',#134,#135,#136);
#134 = CARTESIAN_POINT('',(30.75,31.5,0.E+000));
#135 = DIRECTION('',(-0.707106781187,0.707106781187,0.E+000));
#136 = DIRECTION('',(0.707106781187,0.707106781187,0.E+000));
#137 = ADVANCED_FACE('',(#138),#163,.T.);
#138 = FACE_BOUND('',#139,.T.);
#139 = EDGE_LOOP('',(#140,#141,#149,#157));
#140 = ORIENTED_EDGE('',*,*,#119,.T.);
#141 = ORIENTED_EDGE('',*,*,#142,.T.);
#142 = EDGE_CURVE('',#112,#143,#145,.T.);
#143 = VERTEX_POINT('',#144);
#144 = CARTESIAN_POINT('',(31.5,40.,0.79540354));
#145 = LINE('',#146,#147);
#146 = CARTESIAN_POINT('',(31.5,32.25,0.79540354));
#147 = VECTOR('',#148,1.);
#148 = DIRECTION('',(0.E+000,1.,0.E+000));
#149 = ORIENTED_EDGE('',*,*,#150,.F.);
#150 = EDGE_CURVE('',#151,#143,#153,.T.);
#151 = VERTEX_POINT('',#152);
#152 = CARTESIAN_POINT('',(31.5,40.,0.E+000));
#153 = LINE('',#154,#155);
#154 = CARTESIAN_POINT('',(31.5,40.,0.E+000));
#155 = VECTOR('',#156,1.);
#156 = DIRECTION('',(0.E+000,0.E+000,1.));
#157 = ORIENTED_EDGE('',*,*,#158,.F.);
#158 = EDGE_CURVE('',#120,#151,#159,.T.);
#159 = LINE('',#160,#161);
#160 = CARTESIAN_POINT('',(31.5,32.25,0.E+000));
#161 = VECTOR('',#162,1.);
#162 = DIRECTION('',(0.E+000,1.,0.E+000));
#163 = PLANE('',#164);
#164 = AXIS2_PLACEMENT_3D('',#165,#166,#167);
#165 = CARTESIAN_POINT('',(31.5,32.25,0.E+000));
#166 = DIRECTION('',(-1.,0.E+000,0.E+000));
#167 = DIRECTION('',(0.E+000,1.,0.E+000));
#168 = ADVANCED_FACE('',(#169),#194,.T.);
#169 = FACE_BOUND('',#170,.T.);
#170 = EDGE_LOOP('',(#171,#172,#180,#188));
#171 = ORIENTED_EDGE('',*,*,#150,.T.);
#172 = ORIENTED_EDGE('',*,*,#173,.T.);
#173 = EDGE_CURVE('',#143,#174,#176,.T.);
#174 = VERTEX_POINT('',#175);
#175 = CARTESIAN_POINT('',(32.5,40.,0.79540354));
#176 = LINE('',#177,#178);
#177 = CARTESIAN_POINT('',(31.5,40.,0.79540354));
#178 = VECTOR('',#179,1.);
#179 = DIRECTION('',(1.,0.E+000,0.E+000));
#180 = ORIENTED_EDGE('',*,*,#181,.F.);
#181 = EDGE_CURVE('',#182,#174,#184,.T.);
#182 = VERTEX_POINT('',#183);
#183 = CARTESIAN_POINT('',(32.5,40.,0.E+000));
#184 = LINE('',#185,#186);
#185 = CARTESIAN_POINT('',(32.5,40.,0.E+000));
#186 = VECTOR('',#187,1.);
#187 = DIRECTION('',(0.E+000,0.E+000,1.));
#188 = ORIENTED_EDGE('',*,*,#189,.F.);
#189 = EDGE_CURVE('',#151,#182,#190,.T.);
#190 = LINE('',#191,#192);
#191 = CARTESIAN_POINT('',(31.5,40.,0.E+000));
#192 = VECTOR('',#193,1.);
#193 = DIRECTION('',(1.,0.E+000,0.E+000));
#194 = PLANE('',#195);
#195 = AXIS2_PLACEMENT_3D('',#196,#197,#198);
#196 = CARTESIAN_POINT('',(31.5,40.,0.E+000));
#197 = DIRECTION('',(0.E+000,1.,0.E+000));
#198 = DIRECTION('',(1.,0.E+000,0.E+000));
#199 = ADVANCED_FACE('',(#200),#225,.T.);
#200 = FACE_BOUND('',#201,.T.);
#201 = EDGE_LOOP('',(#202,#203,#211,#219));
#202 = ORIENTED_EDGE('',*,*,#181,.T.);
#203 = ORIENTED_EDGE('',*,*,#204,.T.);
#204 = EDGE_CURVE('',#174,#205,#207,.T.);
#205 = VERTEX_POINT('',#206);
#206 = CARTESIAN_POINT('',(32.5,32.25,0.79540354));
#207 = LINE('',#208,#209);
#208 = CARTESIAN_POINT('',(32.5,40.,0.79540354));
#209 = VECTOR('',#210,1.);
#210 = DIRECTION('',(0.E+000,-1.,0.E+000));
#211 = ORIENTED_EDGE('',*,*,#212,.F.);
#212 = EDGE_CURVE('',#213,#205,#215,.T.);
#213 = VERTEX_POINT('',#214);
#214 = CARTESIAN_POINT('',(32.5,32.25,0.E+000));
#215 = LINE('',#216,#217);
#216 = CARTESIAN_POINT('',(32.5,32.25,0.E+000));
#217 = VECTOR('',#218,1.);
#218 = DIRECTION('',(0.E+000,0.E+000,1.));
#219 = ORIENTED_EDGE('',*,*,#220,.F.);
#220 = EDGE_CURVE('',#182,#213,#221,.T.);
#221 = LINE('',#222,#223);
#222 = CARTESIAN_POINT('',(32.5,40.,0.E+000));
#223 = VECTOR('',#224,1.);
#224 = DIRECTION('',(0.E+000,-1.,0.E+000));
#225 = PLANE('',#226);
#226 = AXIS2_PLACEMENT_3D('',#227,#228,#229);
#227 = CARTESIAN_POINT('',(32.5,40.,0.E+000));
#228 = DIRECTION('',(1.,0.E+000,-0.E+000));
#229 = DIRECTION('',(0.E+000,-1.,0.E+000));
#230 = ADVANCED_FACE('',(#231),#256,.T.);
#231 = FACE_BOUND('',#232,.T.);
#232 = EDGE_LOOP('',(#233,#234,#242,#250));
#233 = ORIENTED_EDGE('',*,*,#212,.T.);
#234 = ORIENTED_EDGE('',*,*,#235,.T.);
#235 = EDGE_CURVE('',#205,#236,#238,.T.);
#236 = VERTEX_POINT('',#237);
#237 = CARTESIAN_POINT('',(33.25,31.5,0.79540354));
#238 = LINE('',#239,#240);
#239 = CARTESIAN_POINT('',(32.5,32.25,0.79540354));
#240 = VECTOR('',#241,1.);
#241 = DIRECTION('',(0.707106781187,-0.707106781187,0.E+000));
#242 = ORIENTED_EDGE('',*,*,#243,.F.);
#243 = EDGE_CURVE('',#244,#236,#246,.T.);
#244 = VERTEX_POINT('',#245);
#245 = CARTESIAN_POINT('',(33.25,31.5,0.E+000));
#246 = LINE('',#247,#248);
#247 = CARTESIAN_POINT('',(33.25,31.5,0.E+000));
#248 = VECTOR('',#249,1.);
#249 = DIRECTION('',(0.E+000,0.E+000,1.));
#250 = ORIENTED_EDGE('',*,*,#251,.F.);
#251 = EDGE_CURVE('',#213,#244,#252,.T.);
#252 = LINE('',#253,#254);
#253 = CARTESIAN_POINT('',(32.5,32.25,0.E+000));
#254 = VECTOR('',#255,1.);
#255 = DIRECTION('',(0.707106781187,-0.707106781187,0.E+000));
#256 = PLANE('',#257);
#257 = AXIS2_PLACEMENT_3D('',#258,#259,#260);
#258 = CARTESIAN_POINT('',(32.5,32.25,0.E+000));
#259 = DIRECTION('',(0.707106781187,0.707106781187,-0.E+000));
#260 = DIRECTION('',(0.707106781187,-0.707106781187,0.E+000));
#261 = ADVANCED_FACE('',(#262),#287,.T.);
#262 = FACE_BOUND('',#263,.T.);
#263 = EDGE_LOOP('',(#264,#265,#273,#281));
#264 = ORIENTED_EDGE('',*,*,#243,.T.);
#265 = ORIENTED_EDGE('',*,*,#266,.T.);
#266 = EDGE_CURVE('',#236,#267,#269,.T.);
#267 = VERTEX_POINT('',#268);
#268 = CARTESIAN_POINT('',(33.25,28.5,0.79540354));
#269 = LINE('',#270,#271);
#270 = CARTESIAN_POINT('',(33.25,31.5,0.79540354));
#271 = VECTOR('',#272,1.);
#272 = DIRECTION('',(0.E+000,-1.,0.E+000));
#273 = ORIENTED_EDGE('',*,*,#274,.F.);
#274 = EDGE_CURVE('',#275,#267,#277,.T.);
#275 = VERTEX_POINT('',#276);
#276 = CARTESIAN_POINT('',(33.25,28.5,0.E+000));
#277 = LINE('',#278,#279);
#278 = CARTESIAN_POINT('',(33.25,28.5,0.E+000));
#279 = VECTOR('',#280,1.);
#280 = DIRECTION('',(0.E+000,0.E+000,1.));
#281 = ORIENTED_EDGE('',*,*,#282,.F.);
#282 = EDGE_CURVE('',#244,#275,#283,.T.);
#283 = LINE('',#284,#285);
#284 = CARTESIAN_POINT('',(33.25,31.5,0.E+000));
#285 = VECTOR('',#286,1.);
#286 = DIRECTION('',(0.E+000,-1.,0.E+000));
#287 = PLANE('',#288);
#288 = AXIS2_PLACEMENT_3D('',#289,#290,#291);
#289 = CARTESIAN_POINT('',(33.25,31.5,0.E+000));
#290 = DIRECTION('',(1.,0.E+000,-0.E+000));
#291 = DIRECTION('',(0.E+000,-1.,0.E+000));
#292 = ADVANCED_FACE('',(#293),#318,.T.);
#293 = FACE_BOUND('',#294,.T.);
#294 = EDGE_LOOP('',(#295,#296,#304,#312));
#295 = ORIENTED_EDGE('',*,*,#274,.T.);
#296 = ORIENTED_EDGE('',*,*,#297,.T.);
#297 = EDGE_CURVE('',#267,#298,#300,.T.);
#298 = VERTEX_POINT('',#299);
#299 = CARTESIAN_POINT('',(32.5,27.75,0.79540354));
#300 = LINE('',#301,#302);
#301 = CARTESIAN_POINT('',(33.25,28.5,0.79540354));
#302 = VECTOR('',#303,1.);
#303 = DIRECTION('',(-0.707106781187,-0.707106781187,0.E+000));
#304 = ORIENTED_EDGE('',*,*,#305,.F.);
#305 = EDGE_CURVE('',#306,#298,#308,.T.);
#306 = VERTEX_POINT('',#307);
#307 = CARTESIAN_POINT('',(32.5,27.75,0.E+000));
#308 = LINE('',#309,#310);
#309 = CARTESIAN_POINT('',(32.5,27.75,0.E+000));
#310 = VECTOR('',#311,1.);
#311 = DIRECTION('',(0.E+000,0.E+000,1.));
#312 = ORIENTED_EDGE('',*,*,#313,.F.);
#313 = EDGE_CURVE('',#275,#306,#314,.T.);
#314 = LINE('',#315,#316);
#315 = CARTESIAN_POINT('',(33.25,28.5,0.E+000));
#316 = VECTOR('',#317,1.);
#317 = DIRECTION('',(-0.707106781187,-0.707106781187,0.E+000));
#318 = PLANE('',#319);
#319 = AXIS2_PLACEMENT_3D('',#320,#321,#322);
#320 = CARTESIAN_POINT('',(33.25,28.5,0.E+000));
#321 = DIRECTION('',(0.707106781187,-0.707106781187,0.E+000));
#322 = DIRECTION('',(-0.707106781187,-0.707106781187,0.E+000));
#323 = ADVANCED_FACE('',(#324),#349,.T.);
#324 = FACE_BOUND('',#325,.T.);
#325 = EDGE_LOOP('',(#326,#327,#335,#343));
#326 = ORIENTED_EDGE('',*,*,#305,.T.);
#327 = ORIENTED_EDGE('',*,*,#328,.T.);
#328 = EDGE_CURVE('',#298,#329,#331,.T.);
#329 = VERTEX_POINT('',#330);
#330 = CARTESIAN_POINT('',(32.5,20.,0.79540354));
#331 = LINE('',#332,#333);
#332 = CARTESIAN_POINT('',(32.5,27.75,0.79540354));
#333 = VECTOR('',#334,1.);
#334 = DIRECTION('',(0.E+000,-1.,0.E+000));
#335 = ORIENTED_EDGE('',*,*,#336,.F.);
#336 = EDGE_CURVE('',#337,#329,#339,.T.);
#337 = VERTEX_POINT('',#338);
#338 = CARTESIAN_POINT('',(32.5,20.,0.E+000));
#339 = LINE('',#340,#341);
#340 = CARTESIAN_POINT('',(32.5,20.,0.E+000));
#341 = VECTOR('',#342,1.);
#342 = DIRECTION('',(0.E+000,0.E+000,1.));
#343 = ORIENTED_EDGE('',*,*,#344,.F.);
#344 = EDGE_CURVE('',#306,#337,#345,.T.);
#345 = LINE('',#346,#347);
#346 = CARTESIAN_POINT('',(32.5,27.75,0.E+000));
#347 = VECTOR('',#348,1.);
#348 = DIRECTION('',(0.E+000,-1.,0.E+000));
#349 = PLANE('',#350);
#350 = AXIS2_PLACEMENT_3D('',#351,#352,#353);
#351 = CARTESIAN_POINT('',(32.5,27.75,0.E+000));
#352 = DIRECTION('',(1.,0.E+000,-0.E+000));
#353 = DIRECTION('',(0.E+000,-1.,0.E+000));
#354 = ADVANCED_FACE('',(#355),#380,.T.);
#355 = FACE_BOUND('',#356,.T.);
#356 = EDGE_LOOP('',(#357,#358,#366,#374));
#357 = ORIENTED_EDGE('',*,*,#336,.T.);
#358 = ORIENTED_EDGE('',*,*,#359,.T.);
#359 = EDGE_CURVE('',#329,#360,#362,.T.);
#360 = VERTEX_POINT('',#361);
#361 = CARTESIAN_POINT('',(31.5,20.,0.79540354));
#362 = LINE('',#363,#364);
#363 = CARTESIAN_POINT('',(32.5,20.,0.79540354));
#364 = VECTOR('',#365,1.);
#365 = DIRECTION('',(-1.,0.E+000,0.E+000));
#366 = ORIENTED_EDGE('',*,*,#367,.F.);
#367 = EDGE_CURVE('',#368,#360,#370,.T.);
#368 = VERTEX_POINT('',#369);
#369 = CARTESIAN_POINT('',(31.5,20.,0.E+000));
#370 = LINE('',#371,#372);
#371 = CARTESIAN_POINT('',(31.5,20.,0.E+000));
#372 = VECTOR('',#373,1.);
#373 = DIRECTION('',(0.E+000,0.E+000,1.));
#374 = ORIENTED_EDGE('',*,*,#375,.F.);
#375 = EDGE_CURVE('',#337,#368,#376,.T.);
#376 = LINE('',#377,#378);
#377 = CARTESIAN_POINT('',(32.5,20.,0.E+000));
#378 = VECTOR('',#379,1.);
#379 = DIRECTION('',(-1.,0.E+000,0.E+000));
#380 = PLANE('',#381);
#381 = AXIS2_PLACEMENT_3D('',#382,#383,#384);
#382 = CARTESIAN_POINT('',(32.5,20.,0.E+000));
#383 = DIRECTION('',(0.E+000,-1.,0.E+000));
#384 = DIRECTION('',(-1.,0.E+000,0.E+000));
#385 = ADVANCED_FACE('',(#386),#411,.T.);
#386 = FACE_BOUND('',#387,.T.);
#387 = EDGE_LOOP('',(#388,#389,#397,#405));
#388 = ORIENTED_EDGE('',*,*,#367,.T.);
#389 = ORIENTED_EDGE('',*,*,#390,.T.);
#390 = EDGE_CURVE('',#360,#391,#393,.T.);
#391 = VERTEX_POINT('',#392);
#392 = CARTESIAN_POINT('',(31.5,24.24949976075,0.79540354));
#393 = LINE('',#394,#395);
#394 = CARTESIAN_POINT('',(31.5,20.,0.79540354));
#395 = VECTOR('',#396,1.);
#396 = DIRECTION('',(0.E+000,1.,0.E+000));
#397 = ORIENTED_EDGE('',*,*,#398,.F.);
#398 = EDGE_CURVE('',#399,#391,#401,.T.);
#399 = VERTEX_POINT('',#400);
#400 = CARTESIAN_POINT('',(31.5,24.24949976075,0.E+000));
#401 = LINE('',#402,#403);
#402 = CARTESIAN_POINT('',(31.5,24.24949976075,0.E+000));
#403 = VECTOR('',#404,1.);
#404 = DIRECTION('',(0.E+000,0.E+000,1.));
#405 = ORIENTED_EDGE('',*,*,#406,.F.);
#406 = EDGE_CURVE('',#368,#399,#407,.T.);
#407 = LINE('',#408,#409);
#408 = CARTESIAN_POINT('',(31.5,20.,0.E+000));
#409 = VECTOR('',#410,1.);
#410 = DIRECTION('',(0.E+000,1.,0.E+000));
#411 = PLANE('',#412);
#412 = AXIS2_PLACEMENT_3D('',#413,#414,#415);
#413 = CARTESIAN_POINT('',(31.5,20.,0.E+000));
#414 = DIRECTION('',(-1.,0.E+000,0.E+000));
#415 = DIRECTION('',(0.E+000,1.,0.E+000));
#416 = ADVANCED_FACE('',(#417),#444,.F.);
#417 = FACE_BOUND('',#418,.T.);
#418 = EDGE_LOOP('',(#419,#420,#429,#437));
#419 = ORIENTED_EDGE('',*,*,#398,.T.);
#420 = ORIENTED_EDGE('',*,*,#421,.T.);
#421 = EDGE_CURVE('',#391,#422,#424,.T.);
#422 = VERTEX_POINT('',#423);
#423 = CARTESIAN_POINT('',(31.5000005,24.24999976,0.79540354));
#424 = CIRCLE('',#425,0.2499995);
#425 = AXIS2_PLACEMENT_3D('',#426,#427,#428);
#426 = CARTESIAN_POINT('',(31.250001,24.24999976,0.79540354));
#427 = DIRECTION('',(0.E+000,0.E+000,1.));
#428 = DIRECTION('',(1.,0.E+000,-0.E+000));
#429 = ORIENTED_EDGE('',*,*,#430,.F.);
#430 = EDGE_CURVE('',#431,#422,#433,.T.);
#431 = VERTEX_POINT('',#432);
#432 = CARTESIAN_POINT('',(31.5000005,24.24999976,0.E+000));
#433 = LINE('',#434,#435);
#434 = CARTESIAN_POINT('',(31.5000005,24.24999976,0.E+000));
#435 = VECTOR('',#436,1.);
#436 = DIRECTION('',(0.E+000,0.E+000,1.));
#437 = ORIENTED_EDGE('',*,*,#438,.F.);
#438 = EDGE_CURVE('',#399,#431,#439,.T.);
#439 = CIRCLE('',#440,0.2499995);
#440 = AXIS2_PLACEMENT_3D('',#441,#442,#443);
#441 = CARTESIAN_POINT('',(31.250001,24.24999976,0.E+000));
#442 = DIRECTION('',(0.E+000,0.E+000,1.));
#443 = DIRECTION('',(1.,0.E+000,-0.E+000));
#444 = CYLINDRICAL_SURFACE('',#445,0.2499995);
#445 = AXIS2_PLACEMENT_3D('',#446,#447,#448);
#446 = CARTESIAN_POINT('',(31.250001,24.24999976,0.E+000));
#447 = DIRECTION('',(-0.E+000,-0.E+000,-1.));
#448 = DIRECTION('',(1.,0.E+000,-0.E+000));
#449 = ADVANCED_FACE('',(#450),#477,.F.);
#450 = FACE_BOUND('',#451,.T.);
#451 = EDGE_LOOP('',(#452,#453,#462,#470));
#452 = ORIENTED_EDGE('',*,*,#430,.T.);
#453 = ORIENTED_EDGE('',*,*,#454,.T.);
#454 = EDGE_CURVE('',#422,#455,#457,.T.);
#455 = VERTEX_POINT('',#456);
#456 = CARTESIAN_POINT('',(31.5,24.25049975925,0.79540354));
#457 = CIRCLE('',#458,0.2499995);
#458 = AXIS2_PLACEMENT_3D('',#459,#460,#461);
#459 = CARTESIAN_POINT('',(31.250001,24.24999976,0.79540354));
#460 = DIRECTION('',(0.E+000,0.E+000,1.));
#461 = DIRECTION('',(1.,0.E+000,-0.E+000));
#462 = ORIENTED_EDGE('',*,*,#463,.F.);
#463 = EDGE_CURVE('',#464,#455,#466,.T.);
#464 = VERTEX_POINT('',#465);
#465 = CARTESIAN_POINT('',(31.5,24.25049975925,0.E+000));
#466 = LINE('',#467,#468);
#467 = CARTESIAN_POINT('',(31.5,24.25049975925,0.E+000));
#468 = VECTOR('',#469,1.);
#469 = DIRECTION('',(0.E+000,0.E+000,1.));
#470 = ORIENTED_EDGE('',*,*,#471,.F.);
#471 = EDGE_CURVE('',#431,#464,#472,.T.);
#472 = CIRCLE('',#473,0.2499995);
#473 = AXIS2_PLACEMENT_3D('',#474,#475,#476);
#474 = CARTESIAN_POINT('',(31.250001,24.24999976,0.E+000));
#475 = DIRECTION('',(0.E+000,0.E+000,1.));
#476 = DIRECTION('',(1.,0.E+000,-0.E+000));
#477 = CYLINDRICAL_SURFACE('',#478,0.2499995);
#478 = AXIS2_PLACEMENT_3D('',#479,#480,#481);
#479 = CARTESIAN_POINT('',(31.250001,24.24999976,0.E+000));
#480 = DIRECTION('',(-0.E+000,-0.E+000,-1.));
#481 = DIRECTION('',(1.,0.E+000,-0.E+000));
#482 = ADVANCED_FACE('',(#483),#508,.T.);
#483 = FACE_BOUND('',#484,.T.);
#484 = EDGE_LOOP('',(#485,#486,#494,#502));
#485 = ORIENTED_EDGE('',*,*,#463,.T.);
#486 = ORIENTED_EDGE('',*,*,#487,.T.);
#487 = EDGE_CURVE('',#455,#488,#490,.T.);
#488 = VERTEX_POINT('',#489);
#489 = CARTESIAN_POINT('',(31.5,24.99950080075,0.79540354));
#490 = LINE('',#491,#492);
#491 = CARTESIAN_POINT('',(31.5,20.,0.79540354));
#492 = VECTOR('',#493,1.);
#493 = DIRECTION('',(0.E+000,1.,0.E+000));
#494 = ORIENTED_EDGE('',*,*,#495,.F.);
#495 = EDGE_CURVE('',#496,#488,#498,.T.);
#496 = VERTEX_POINT('',#497);
#497 = CARTESIAN_POINT('',(31.5,24.99950080075,0.E+000));
#498 = LINE('',#499,#500);
#499 = CARTESIAN_POINT('',(31.5,24.99950080075,0.E+000));
#500 = VECTOR('',#501,1.);
#501 = DIRECTION('',(0.E+000,0.E+000,1.));
#502 = ORIENTED_EDGE('',*,*,#503,.F.);
#503 = EDGE_CURVE('',#464,#496,#504,.T.);
#504 = LINE('',#505,#506);
#505 = CARTESIAN_POINT('',(31.5,20.,0.E+000));
#506 = VECTOR('',#507,1.);
#507 = DIRECTION('',(0.E+000,1.,0.E+000));
#508 = PLANE('',#509);
#509 = AXIS2_PLACEMENT_3D('',#510,#511,#512);
#510 = CARTESIAN_POINT('',(31.5,24.25049975925,0.E+000));
#511 = DIRECTION('',(-1.,0.E+000,0.E+000));
#512 = DIRECTION('',(0.E+000,1.,0.E+000));
#513 = ADVANCED_FACE('',(#514),#541,.F.);
#514 = FACE_BOUND('',#515,.T.);
#515 = EDGE_LOOP('',(#516,#517,#526,#534));
#516 = ORIENTED_EDGE('',*,*,#495,.T.);
#517 = ORIENTED_EDGE('',*,*,#518,.T.);
#518 = EDGE_CURVE('',#488,#519,#521,.T.);
#519 = VERTEX_POINT('',#520);
#520 = CARTESIAN_POINT('',(31.5000005,25.0000008,0.79540354));
#521 = CIRCLE('',#522,0.2499995);
#522 = AXIS2_PLACEMENT_3D('',#523,#524,#525);
#523 = CARTESIAN_POINT('',(31.250001,25.0000008,0.79540354));
#524 = DIRECTION('',(0.E+000,0.E+000,1.));
#525 = DIRECTION('',(1.,0.E+000,-0.E+000));
#526 = ORIENTED_EDGE('',*,*,#527,.F.);
#527 = EDGE_CURVE('',#528,#519,#530,.T.);
#528 = VERTEX_POINT('',#529);
#529 = CARTESIAN_POINT('',(31.5000005,25.0000008,0.E+000));
#530 = LINE('',#531,#532);
#531 = CARTESIAN_POINT('',(31.5000005,25.0000008,0.E+000));
#532 = VECTOR('',#533,1.);
#533 = DIRECTION('',(0.E+000,0.E+000,1.));
#534 = ORIENTED_EDGE('',*,*,#535,.F.);
#535 = EDGE_CURVE('',#496,#528,#536,.T.);
#536 = CIRCLE('',#537,0.2499995);
#537 = AXIS2_PLACEMENT_3D('',#538,#539,#540);
#538 = CARTESIAN_POINT('',(31.250001,25.0000008,0.E+000));
#539 = DIRECTION('',(0.E+000,0.E+000,1.));
#540 = DIRECTION('',(1.,0.E+000,-0.E+000));
#541 = CYLINDRICAL_SURFACE('',#542,0.2499995);
#542 = AXIS2_PLACEMENT_3D('',#543,#544,#545);
#543 = CARTESIAN_POINT('',(31.250001,25.0000008,0.E+000));
#544 = DIRECTION('',(-0.E+000,-0.E+000,-1.));
#545 = DIRECTION('',(1.,0.E+000,-0.E+000));
#546 = ADVANCED_FACE('',(#547),#574,.F.);
#547 = FACE_BOUND('',#548,.T.);
#548 = EDGE_LOOP('',(#549,#550,#559,#567));
#549 = ORIENTED_EDGE('',*,*,#527,.T.);
#550 = ORIENTED_EDGE('',*,*,#551,.T.);
#551 = EDGE_CURVE('',#519,#552,#554,.T.);
#552 = VERTEX_POINT('',#553);
#553 = CARTESIAN_POINT('',(31.5,25.00050079925,0.79540354));
#554 = CIRCLE('',#555,0.2499995);
#555 = AXIS2_PLACEMENT_3D('',#556,#557,#558);
#556 = CARTESIAN_POINT('',(31.250001,25.0000008,0.79540354));
#557 = DIRECTION('',(0.E+000,0.E+000,1.));
#558 = DIRECTION('',(1.,0.E+000,-0.E+000));
#559 = ORIENTED_EDGE('',*,*,#560,.F.);
#560 = EDGE_CURVE('',#561,#552,#563,.T.);
#561 = VERTEX_POINT('',#562);
#562 = CARTESIAN_POINT('',(31.5,25.00050079925,0.E+000));
#563 = LINE('',#564,#565);
#564 = CARTESIAN_POINT('',(31.5,25.00050079925,0.E+000));
#565 = VECTOR('',#566,1.);
#566 = DIRECTION('',(0.E+000,0.E+000,1.));
#567 = ORIENTED_EDGE('',*,*,#568,.F.);
#568 = EDGE_CURVE('',#528,#561,#569,.T.);
#569 = CIRCLE('',#570,0.2499995);
#570 = AXIS2_PLACEMENT_3D('',#571,#572,#573);
#571 = CARTESIAN_POINT('',(31.250001,25.0000008,0.E+000));
#572 = DIRECTION('',(0.E+000,0.E+000,1.));
#573 = DIRECTION('',(1.,0.E+000,-0.E+000));
#574 = CYLINDRICAL_SURFACE('',#575,0.2499995);
#575 = AXIS2_PLACEMENT_3D('',#576,#577,#578);
#576 = CARTESIAN_POINT('',(31.250001,25.0000008,0.E+000));
#577 = DIRECTION('',(-0.E+000,-0.E+000,-1.));
#578 = DIRECTION('',(1.,0.E+000,-0.E+000));
#579 = ADVANCED_FACE('',(#580),#605,.T.);
#580 = FACE_BOUND('',#581,.T.);
#581 = EDGE_LOOP('',(#582,#583,#591,#599));
#582 = ORIENTED_EDGE('',*,*,#560,.T.);
#583 = ORIENTED_EDGE('',*,*,#584,.T.);
#584 = EDGE_CURVE('',#552,#585,#587,.T.);
#585 = VERTEX_POINT('',#586);
#586 = CARTESIAN_POINT('',(31.5,25.74949930075,0.79540354));
#587 = LINE('',#588,#589);
#588 = CARTESIAN_POINT('',(31.5,20.,0.79540354));
#589 = VECTOR('',#590,1.);
#590 = DIRECTION('',(0.E+000,1.,0.E+000));
#591 = ORIENTED_EDGE('',*,*,#592,.F.);
#592 = EDGE_CURVE('',#593,#585,#595,.T.);
#593 = VERTEX_POINT('',#594);
#594 = CARTESIAN_POINT('',(31.5,25.74949930075,0.E+000));
#595 = LINE('',#596,#597);
#596 = CARTESIAN_POINT('',(31.5,25.74949930075,0.E+000));
#597 = VECTOR('',#598,1.);
#598 = DIRECTION('',(0.E+000,0.E+000,1.));
#599 = ORIENTED_EDGE('',*,*,#600,.F.);
#600 = EDGE_CURVE('',#561,#593,#601,.T.);
#601 = LINE('',#602,#603);
#602 = CARTESIAN_POINT('',(31.5,20.,0.E+000));
#603 = VECTOR('',#604,1.);
#604 = DIRECTION('',(0.E+000,1.,0.E+000));
#605 = PLANE('',#606);
#606 = AXIS2_PLACEMENT_3D('',#607,#608,#609);
#607 = CARTESIAN_POINT('',(31.5,25.00050079925,0.E+000));
#608 = DIRECTION('',(-1.,0.E+000,0.E+000));
#609 = DIRECTION('',(0.E+000,1.,0.E+000));
#610 = ADVANCED_FACE('',(#611),#638,.F.);
#611 = FACE_BOUND('',#612,.T.);
#612 = EDGE_LOOP('',(#613,#614,#623,#631));
#613 = ORIENTED_EDGE('',*,*,#592,.T.);
#614 = ORIENTED_EDGE('',*,*,#615,.T.);
#615 = EDGE_CURVE('',#585,#616,#618,.T.);
#616 = VERTEX_POINT('',#617);
#617 = CARTESIAN_POINT('',(31.5000005,25.7499993,0.79540354));
#618 = CIRCLE('',#619,0.2499995);
#619 = AXIS2_PLACEMENT_3D('',#620,#621,#622);
#620 = CARTESIAN_POINT('',(31.250001,25.7499993,0.79540354));
#621 = DIRECTION('',(0.E+000,0.E+000,1.));
#622 = DIRECTION('',(1.,0.E+000,-0.E+000));
#623 = ORIENTED_EDGE('',*,*,#624,.F.);
#624 = EDGE_CURVE('',#625,#616,#627,.T.);
#625 = VERTEX_POINT('',#626);
#626 = CARTESIAN_POINT('',(31.5000005,25.7499993,0.E+000));
#627 = LINE('',#628,#629);
#628 = CARTESIAN_POINT('',(31.5000005,25.7499993,0.E+000));
#629 = VECTOR('',#630,1.);
#630 = DIRECTION('',(0.E+000,0.E+000,1.));
#631 = ORIENTED_EDGE('',*,*,#632,.F.);
#632 = EDGE_CURVE('',#593,#625,#633,.T.);
#633 = CIRCLE('',#634,0.2499995);
#634 = AXIS2_PLACEMENT_3D('',#635,#636,#637);
#635 = CARTESIAN_POINT('',(31.250001,25.7499993,0.E+000));
#636 = DIRECTION('',(0.E+000,0.E+000,1.));
#637 = DIRECTION('',(1.,0.E+000,-0.E+000));
#638 = CYLINDRICAL_SURFACE('',#639,0.2499995);
#639 = AXIS2_PLACEMENT_3D('',#640,#641,#642);
#640 = CARTESIAN_POINT('',(31.250001,25.7499993,0.E+000));
#641 = DIRECTION('',(-0.E+000,-0.E+000,-1.));
#642 = DIRECTION('',(1.,0.E+000,-0.E+000));
#643 = ADVANCED_FACE('',(#644),#671,.F.);
#644 = FACE_BOUND('',#645,.T.);
#645 = EDGE_LOOP('',(#646,#647,#656,#664));
#646 = ORIENTED_EDGE('',*,*,#624,.T.);
#647 = ORIENTED_EDGE('',*,*,#648,.T.);
#648 = EDGE_CURVE('',#616,#649,#651,.T.);
#649 = VERTEX_POINT('',#650);
#650 = CARTESIAN_POINT('',(31.5,25.75049929925,0.79540354));
#651 = CIRCLE('',#652,0.2499995);
#652 = AXIS2_PLACEMENT_3D('',#653,#654,#655);
#653 = CARTESIAN_POINT('',(31.250001,25.7499993,0.79540354));
#654 = DIRECTION('',(0.E+000,0.E+000,1.));
#655 = DIRECTION('',(1.,0.E+000,-0.E+000));
#656 = ORIENTED_EDGE('',*,*,#657,.F.);
#657 = EDGE_CURVE('',#658,#649,#660,.T.);
#658 = VERTEX_POINT('',#659);
#659 = CARTESIAN_POINT('',(31.5,25.75049929925,0.E+000));
#660 = LINE('',#661,#662);
#661 = CARTESIAN_POINT('',(31.5,25.75049929925,0.E+000));
#662 = VECTOR('',#663,1.);
#663 = DIRECTION('',(0.E+000,0.E+000,1.));
#664 = ORIENTED_EDGE('',*,*,#665,.F.);
#665 = EDGE_CURVE('',#625,#658,#666,.T.);
#666 = CIRCLE('',#667,0.2499995);
#667 = AXIS2_PLACEMENT_3D('',#668,#669,#670);
#668 = CARTESIAN_POINT('',(31.250001,25.7499993,0.E+000));
#669 = DIRECTION('',(0.E+000,0.E+000,1.));
#670 = DIRECTION('',(1.,0.E+000,-0.E+000));
#671 = CYLINDRICAL_SURFACE('',#672,0.2499995);
#672 = AXIS2_PLACEMENT_3D('',#673,#674,#675);
#673 = CARTESIAN_POINT('',(31.250001,25.7499993,0.E+000));
#674 = DIRECTION('',(-0.E+000,-0.E+000,-1.));
#675 = DIRECTION('',(1.,0.E+000,-0.E+000));
#676 = ADVANCED_FACE('',(#677),#702,.T.);
#677 = FACE_BOUND('',#678,.T.);
#678 = EDGE_LOOP('',(#679,#680,#688,#696));
#679 = ORIENTED_EDGE('',*,*,#657,.T.);
#680 = ORIENTED_EDGE('',*,*,#681,.T.);
#681 = EDGE_CURVE('',#649,#682,#684,.T.);
#682 = VERTEX_POINT('',#683);
#683 = CARTESIAN_POINT('',(31.5,26.49950034075,0.79540354));
#684 = LINE('',#685,#686);
#685 = CARTESIAN_POINT('',(31.5,20.,0.79540354));
#686 = VECTOR('',#687,1.);
#687 = DIRECTION('',(0.E+000,1.,0.E+000));
#688 = ORIENTED_EDGE('',*,*,#689,.F.);
#689 = EDGE_CURVE('',#690,#682,#692,.T.);
#690 = VERTEX_POINT('',#691);
#691 = CARTESIAN_POINT('',(31.5,26.49950034075,0.E+000));
#692 = LINE('',#693,#694);
#693 = CARTESIAN_POINT('',(31.5,26.49950034075,0.E+000));
#694 = VECTOR('',#695,1.);
#695 = DIRECTION('',(0.E+000,0.E+000,1.));
#696 = ORIENTED_EDGE('',*,*,#697,.F.);
#697 = EDGE_CURVE('',#658,#690,#698,.T.);
#698 = LINE('',#699,#700);
#699 = CARTESIAN_POINT('',(31.5,20.,0.E+000));
#700 = VECTOR('',#701,1.);
#701 = DIRECTION('',(0.E+000,1.,0.E+000));
#702 = PLANE('',#703);
#703 = AXIS2_PLACEMENT_3D('',#704,#705,#706);
#704 = CARTESIAN_POINT('',(31.5,25.75049929925,0.E+000));
#705 = DIRECTION('',(-1.,0.E+000,0.E+000));
#706 = DIRECTION('',(0.E+000,1.,0.E+000));
#707 = ADVANCED_FACE('',(#708),#735,.F.);
#708 = FACE_BOUND('',#709,.T.);
#709 = EDGE_LOOP('',(#710,#711,#720,#728));
#710 = ORIENTED_EDGE('',*,*,#689,.T.);
#711 = ORIENTED_EDGE('',*,*,#712,.T.);
#712 = EDGE_CURVE('',#682,#713,#715,.T.);
#713 = VERTEX_POINT('',#714);
#714 = CARTESIAN_POINT('',(31.5000005,26.50000034,0.79540354));
#715 = CIRCLE('',#716,0.2499995);
#716 = AXIS2_PLACEMENT_3D('',#717,#718,#719);
#717 = CARTESIAN_POINT('',(31.250001,26.50000034,0.79540354));
#718 = DIRECTION('',(0.E+000,0.E+000,1.));
#719 = DIRECTION('',(1.,0.E+000,-0.E+000));
#720 = ORIENTED_EDGE('',*,*,#721,.F.);
#721 = EDGE_CURVE('',#722,#713,#724,.T.);
#722 = VERTEX_POINT('',#723);
#723 = CARTESIAN_POINT('',(31.5000005,26.50000034,0.E+000));
#724 = LINE('',#725,#726);
#725 = CARTESIAN_POINT('',(31.5000005,26.50000034,0.E+000));
#726 = VECTOR('',#727,1.);
#727 = DIRECTION('',(0.E+000,0.E+000,1.));
#728 = ORIENTED_EDGE('',*,*,#729,.F.);
#729 = EDGE_CURVE('',#690,#722,#730,.T.);
#730 = CIRCLE('',#731,0.2499995);
#731 = AXIS2_PLACEMENT_3D('',#732,#733,#734);
#732 = CARTESIAN_POINT('',(31.250001,26.50000034,0.E+000));
#733 = DIRECTION('',(0.E+000,0.E+000,1.));
#734 = DIRECTION('',(1.,0.E+000,-0.E+000));
#735 = CYLINDRICAL_SURFACE('',#736,0.2499995);
#736 = AXIS2_PLACEMENT_3D('',#737,#738,#739);
#737 = CARTESIAN_POINT('',(31.250001,26.50000034,0.E+000));
#738 = DIRECTION('',(-0.E+000,-0.E+000,-1.));
#739 = DIRECTION('',(1.,0.E+000,-0.E+000));
#740 = ADVANCED_FACE('',(#741),#768,.F.);
#741 = FACE_BOUND('',#742,.T.);
#742 = EDGE_LOOP('',(#743,#744,#753,#761));
#743 = ORIENTED_EDGE('',*,*,#721,.T.);
#744 = ORIENTED_EDGE('',*,*,#745,.T.);
#745 = EDGE_CURVE('',#713,#746,#748,.T.);
#746 = VERTEX_POINT('',#747);
#747 = CARTESIAN_POINT('',(31.5,26.50050033925,0.79540354));
#748 = CIRCLE('',#749,0.2499995);
#749 = AXIS2_PLACEMENT_3D('',#750,#751,#752);
#750 = CARTESIAN_POINT('',(31.250001,26.50000034,0.79540354));
#751 = DIRECTION('',(0.E+000,0.E+000,1.));
#752 = DIRECTION('',(1.,0.E+000,-0.E+000));
#753 = ORIENTED_EDGE('',*,*,#754,.F.);
#754 = EDGE_CURVE('',#755,#746,#757,.T.);
#755 = VERTEX_POINT('',#756);
#756 = CARTESIAN_POINT('',(31.5,26.50050033925,0.E+000));
#757 = LINE('',#758,#759);
#758 = CARTESIAN_POINT('',(31.5,26.50050033925,0.E+000));
#759 = VECTOR('',#760,1.);
#760 = DIRECTION('',(0.E+000,0.E+000,1.));
#761 = ORIENTED_EDGE('',*,*,#762,.F.);
#762 = EDGE_CURVE('',#722,#755,#763,.T.);
#763 = CIRCLE('',#764,0.2499995);
#764 = AXIS2_PLACEMENT_3D('',#765,#766,#767);
#765 = CARTESIAN_POINT('',(31.250001,26.50000034,0.E+000));
#766 = DIRECTION('',(0.E+000,0.E+000,1.));
#767 = DIRECTION('',(1.,0.E+000,-0.E+000));
#768 = CYLINDRICAL_SURFACE('',#769,0.2499995);
#769 = AXIS2_PLACEMENT_3D('',#770,#771,#772);
#770 = CARTESIAN_POINT('',(31.250001,26.50000034,0.E+000));
#771 = DIRECTION('',(-0.E+000,-0.E+000,-1.));
#772 = DIRECTION('',(1.,0.E+000,-0.E+000));
#773 = ADVANCED_FACE('',(#774),#799,.T.);
#774 = FACE_BOUND('',#775,.T.);
#775 = EDGE_LOOP('',(#776,#777,#785,#793));
#776 = ORIENTED_EDGE('',*,*,#754,.T.);
#777 = ORIENTED_EDGE('',*,*,#778,.T.);
#778 = EDGE_CURVE('',#746,#779,#781,.T.);
#779 = VERTEX_POINT('',#780);
#780 = CARTESIAN_POINT('',(31.5,27.24949884075,0.79540354));
#781 = LINE('',#782,#783);
#782 = CARTESIAN_POINT('',(31.5,20.,0.79540354));
#783 = VECTOR('',#784,1.);
#784 = DIRECTION('',(0.E+000,1.,0.E+000));
#785 = ORIENTED_EDGE('',*,*,#786,.F.);
#786 = EDGE_CURVE('',#787,#779,#789,.T.);
#787 = VERTEX_POINT('',#788);
#788 = CARTESIAN_POINT('',(31.5,27.24949884075,0.E+000));
#789 = LINE('',#790,#791);
#790 = CARTESIAN_POINT('',(31.5,27.24949884075,0.E+000));
#791 = VECTOR('',#792,1.);
#792 = DIRECTION('',(0.E+000,0.E+000,1.));
#793 = ORIENTED_EDGE('',*,*,#794,.F.);
#794 = EDGE_CURVE('',#755,#787,#795,.T.);
#795 = LINE('',#796,#797);
#796 = CARTESIAN_POINT('',(31.5,20.,0.E+000));
#797 = VECTOR('',#798,1.);
#798 = DIRECTION('',(0.E+000,1.,0.E+000));
#799 = PLANE('',#800);
#800 = AXIS2_PLACEMENT_3D('',#801,#802,#803);
#801 = CARTESIAN_POINT('',(31.5,26.50050033925,0.E+000));
#802 = DIRECTION('',(-1.,0.E+000,0.E+000));
#803 = DIRECTION('',(0.E+000,1.,0.E+000));
#804 = ADVANCED_FACE('',(#805),#832,.F.);
#805 = FACE_BOUND('',#806,.T.);
#806 = EDGE_LOOP('',(#807,#808,#817,#825));
#807 = ORIENTED_EDGE('',*,*,#786,.T.);
#808 = ORIENTED_EDGE('',*,*,#809,.T.);
#809 = EDGE_CURVE('',#779,#810,#812,.T.);
#810 = VERTEX_POINT('',#811);
#811 = CARTESIAN_POINT('',(31.5000005,27.24999884,0.79540354));
#812 = CIRCLE('',#813,0.2499995);
#813 = AXIS2_PLACEMENT_3D('',#814,#815,#816);
#814 = CARTESIAN_POINT('',(31.250001,27.24999884,0.79540354));
#815 = DIRECTION('',(0.E+000,0.E+000,1.));
#816 = DIRECTION('',(1.,0.E+000,-0.E+000));
#817 = ORIENTED_EDGE('',*,*,#818,.F.);
#818 = EDGE_CURVE('',#819,#810,#821,.T.);
#819 = VERTEX_POINT('',#820);
#820 = CARTESIAN_POINT('',(31.5000005,27.24999884,0.E+000));
#821 = LINE('',#822,#823);
#822 = CARTESIAN_POINT('',(31.5000005,27.24999884,0.E+000));
#823 = VECTOR('',#824,1.);
#824 = DIRECTION('',(0.E+000,0.E+000,1.));
#825 = ORIENTED_EDGE('',*,*,#826,.F.);
#826 = EDGE_CURVE('',#787,#819,#827,.T.);
#827 = CIRCLE('',#828,0.2499995);
#828 = AXIS2_PLACEMENT_3D('',#829,#830,#831);
#829 = CARTESIAN_POINT('',(31.250001,27.24999884,0.E+000));
#830 = DIRECTION('',(0.E+000,0.E+000,1.));
#831 = DIRECTION('',(1.,0.E+000,-0.E+000));
#832 = CYLINDRICAL_SURFACE('',#833,0.2499995);
#833 = AXIS2_PLACEMENT_3D('',#834,#835,#836);
#834 = CARTESIAN_POINT('',(31.250001,27.24999884,0.E+000));
#835 = DIRECTION('',(-0.E+000,-0.E+000,-1.));
#836 = DIRECTION('',(1.,0.E+000,-0.E+000));
#837 = ADVANCED_FACE('',(#838),#865,.F.);
#838 = FACE_BOUND('',#839,.T.);
#839 = EDGE_LOOP('',(#840,#841,#850,#858));
#840 = ORIENTED_EDGE('',*,*,#818,.T.);
#841 = ORIENTED_EDGE('',*,*,#842,.T.);
#842 = EDGE_CURVE('',#810,#843,#845,.T.);
#843 = VERTEX_POINT('',#844);
#844 = CARTESIAN_POINT('',(31.5,27.25049883925,0.79540354));
#845 = CIRCLE('',#846,0.2499995);
#846 = AXIS2_PLACEMENT_3D('',#847,#848,#849);
#847 = CARTESIAN_POINT('',(31.250001,27.24999884,0.79540354));
#848 = DIRECTION('',(0.E+000,0.E+000,1.));
#849 = DIRECTION('',(1.,0.E+000,-0.E+000));
#850 = ORIENTED_EDGE('',*,*,#851,.F.);
#851 = EDGE_CURVE('',#852,#843,#854,.T.);
#852 = VERTEX_POINT('',#853);
#853 = CARTESIAN_POINT('',(31.5,27.25049883925,0.E+000));
#854 = LINE('',#855,#856);
#855 = CARTESIAN_POINT('',(31.5,27.25049883925,0.E+000));
#856 = VECTOR('',#857,1.);
#857 = DIRECTION('',(0.E+000,0.E+000,1.));
#858 = ORIENTED_EDGE('',*,*,#859,.F.);
#859 = EDGE_CURVE('',#819,#852,#860,.T.);
#860 = CIRCLE('',#861,0.2499995);
#861 = AXIS2_PLACEMENT_3D('',#862,#863,#864);
#862 = CARTESIAN_POINT('',(31.250001,27.24999884,0.E+000));
#863 = DIRECTION('',(0.E+000,0.E+000,1.));
#864 = DIRECTION('',(1.,0.E+000,-0.E+000));
#865 = CYLINDRICAL_SURFACE('',#866,0.2499995);
#866 = AXIS2_PLACEMENT_3D('',#867,#868,#869);
#867 = CARTESIAN_POINT('',(31.250001,27.24999884,0.E+000));
#868 = DIRECTION('',(-0.E+000,-0.E+000,-1.));
#869 = DIRECTION('',(1.,0.E+000,-0.E+000));
#870 = ADVANCED_FACE('',(#871),#896,.T.);
#871 = FACE_BOUND('',#872,.T.);
#872 = EDGE_LOOP('',(#873,#874,#882,#890));
#873 = ORIENTED_EDGE('',*,*,#851,.T.);
#874 = ORIENTED_EDGE('',*,*,#875,.T.);
#875 = EDGE_CURVE('',#843,#876,#878,.T.);
#876 = VERTEX_POINT('',#877);
#877 = CARTESIAN_POINT('',(31.5,27.75,0.79540354));
#878 = LINE('',#879,#880);
#879 = CARTESIAN_POINT('',(31.5,20.,0.79540354));
#880 = VECTOR('',#881,1.);
#881 = DIRECTION('',(0.E+000,1.,0.E+000));
#882 = ORIENTED_EDGE('',*,*,#883,.F.);
#883 = EDGE_CURVE('',#884,#876,#886,.T.);
#884 = VERTEX_POINT('',#885);
#885 = CARTESIAN_POINT('',(31.5,27.75,0.E+000));
#886 = LINE('',#887,#888);
#887 = CARTESIAN_POINT('',(31.5,27.75,0.E+000));
#888 = VECTOR('',#889,1.);
#889 = DIRECTION('',(0.E+000,0.E+000,1.));
#890 = ORIENTED_EDGE('',*,*,#891,.F.);
#891 = EDGE_CURVE('',#852,#884,#892,.T.);
#892 = LINE('',#893,#894);
#893 = CARTESIAN_POINT('',(31.5,20.,0.E+000));
#894 = VECTOR('',#895,1.);
#895 = DIRECTION('',(0.E+000,1.,0.E+000));
#896 = PLANE('',#897);
#897 = AXIS2_PLACEMENT_3D('',#898,#899,#900);
#898 = CARTESIAN_POINT('',(31.5,27.25049883925,0.E+000));
#899 = DIRECTION('',(-1.,0.E+000,0.E+000));
#900 = DIRECTION('',(0.E+000,1.,0.E+000));
#901 = ADVANCED_FACE('',(#902),#918,.T.);
#902 = FACE_BOUND('',#903,.T.);
#903 = EDGE_LOOP('',(#904,#905,#911,#912));
#904 = ORIENTED_EDGE('',*,*,#883,.T.);
#905 = ORIENTED_EDGE('',*,*,#906,.T.);
#906 = EDGE_CURVE('',#876,#73,#907,.T.);
#907 = LINE('',#908,#909);
#908 = CARTESIAN_POINT('',(31.5,27.75,0.79540354));
#909 = VECTOR('',#910,1.);
#910 = DIRECTION('',(-0.707106781187,0.707106781187,0.E+000));
#911 = ORIENTED_EDGE('',*,*,#70,.F.);
#912 = ORIENTED_EDGE('',*,*,#913,.F.);
#913 = EDGE_CURVE('',#884,#71,#914,.T.);
#914 = LINE('',#915,#916);
#915 = CARTESIAN_POINT('',(31.5,27.75,0.E+000));
#916 = VECTOR('',#917,1.);
#917 = DIRECTION('',(-0.707106781187,0.707106781187,0.E+000));
#918 = PLANE('',#919);
#919 = AXIS2_PLACEMENT_3D('',#920,#921,#922);
#920 = CARTESIAN_POINT('',(31.5,27.75,0.E+000));
#921 = DIRECTION('',(-0.707106781187,-0.707106781187,0.E+000));
#922 = DIRECTION('',(-0.707106781187,0.707106781187,0.E+000));
#923 = ADVANCED_FACE('',(#924),#953,.F.);
#924 = FACE_BOUND('',#925,.F.);
#925 = EDGE_LOOP('',(#926,#927,#928,#929,#930,#931,#932,#933,#934,#935,
    #936,#937,#938,#939,#940,#941,#942,#943,#944,#945,#946,#947,#948,
    #949,#950,#951,#952));
#926 = ORIENTED_EDGE('',*,*,#96,.F.);
#927 = ORIENTED_EDGE('',*,*,#913,.F.);
#928 = ORIENTED_EDGE('',*,*,#891,.F.);
#929 = ORIENTED_EDGE('',*,*,#859,.F.);
#930 = ORIENTED_EDGE('',*,*,#826,.F.);
#931 = ORIENTED_EDGE('',*,*,#794,.F.);
#932 = ORIENTED_EDGE('',*,*,#762,.F.);
#933 = ORIENTED_EDGE('',*,*,#729,.F.);
#934 = ORIENTED_EDGE('',*,*,#697,.F.);
#935 = ORIENTED_EDGE('',*,*,#665,.F.);
#936 = ORIENTED_EDGE('',*,*,#632,.F.);
#937 = ORIENTED_EDGE('',*,*,#600,.F.);
#938 = ORIENTED_EDGE('',*,*,#568,.F.);
#939 = ORIENTED_EDGE('',*,*,#535,.F.);
#940 = ORIENTED_EDGE('',*,*,#503,.F.);
#941 = ORIENTED_EDGE('',*,*,#471,.F.);
#942 = ORIENTED_EDGE('',*,*,#438,.F.);
#943 = ORIENTED_EDGE('',*,*,#406,.F.);
#944 = ORIENTED_EDGE('',*,*,#375,.F.);
#945 = ORIENTED_EDGE('',*,*,#344,.F.);
#946 = ORIENTED_EDGE('',*,*,#313,.F.);
#947 = ORIENTED_EDGE('',*,*,#282,.F.);
#948 = ORIENTED_EDGE('',*,*,#251,.F.);
#949 = ORIENTED_EDGE('',*,*,#220,.F.);
#950 = ORIENTED_EDGE('',*,*,#189,.F.);
#951 = ORIENTED_EDGE('',*,*,#158,.F.);
#952 = ORIENTED_EDGE('',*,*,#127,.F.);
#953 = PLANE('',#954);
#954 = AXIS2_PLACEMENT_3D('',#955,#956,#957);
#955 = CARTESIAN_POINT('',(30.75,28.5,0.E+000));
#956 = DIRECTION('',(0.E+000,0.E+000,1.));
#957 = DIRECTION('',(1.,0.E+000,-0.E+000));
#958 = ADVANCED_FACE('',(#959),#988,.T.);
#959 = FACE_BOUND('',#960,.T.);
#960 = EDGE_LOOP('',(#961,#962,#963,#964,#965,#966,#967,#968,#969,#970,
    #971,#972,#973,#974,#975,#976,#977,#978,#979,#980,#981,#982,#983,
    #984,#985,#986,#987));
#961 = ORIENTED_EDGE('',*,*,#80,.F.);
#962 = ORIENTED_EDGE('',*,*,#906,.F.);
#963 = ORIENTED_EDGE('',*,*,#875,.F.);
#964 = ORIENTED_EDGE('',*,*,#842,.F.);
#965 = ORIENTED_EDGE('',*,*,#809,.F.);
#966 = ORIENTED_EDGE('',*,*,#778,.F.);
#967 = ORIENTED_EDGE('',*,*,#745,.F.);
#968 = ORIENTED_EDGE('',*,*,#712,.F.);
#969 = ORIENTED_EDGE('',*,*,#681,.F.);
#970 = ORIENTED_EDGE('',*,*,#648,.F.);
#971 = ORIENTED_EDGE('',*,*,#615,.F.);
#972 = ORIENTED_EDGE('',*,*,#584,.F.);
#973 = ORIENTED_EDGE('',*,*,#551,.F.);
#974 = ORIENTED_EDGE('',*,*,#518,.F.);
#975 = ORIENTED_EDGE('',*,*,#487,.F.);
#976 = ORIENTED_EDGE('',*,*,#454,.F.);
#977 = ORIENTED_EDGE('',*,*,#421,.F.);
#978 = ORIENTED_EDGE('',*,*,#390,.F.);
#979 = ORIENTED_EDGE('',*,*,#359,.F.);
#980 = ORIENTED_EDGE('',*,*,#328,.F.);
#981 = ORIENTED_EDGE('',*,*,#297,.F.);
#982 = ORIENTED_EDGE('',*,*,#266,.F.);
#983 = ORIENTED_EDGE('',*,*,#235,.F.);
#984 = ORIENTED_EDGE('',*,*,#204,.F.);
#985 = ORIENTED_EDGE('',*,*,#173,.F.);
#986 = ORIENTED_EDGE('',*,*,#142,.F.);
#987 = ORIENTED_EDGE('',*,*,#111,.F.);
#988 = PLANE('',#989);
#989 = AXIS2_PLACEMENT_3D('',#990,#991,#992);
#990 = CARTESIAN_POINT('',(30.75,28.5,0.79540354));
#991 = DIRECTION('',(0.E+000,0.E+000,1.));
#992 = DIRECTION('',(1.,0.E+000,-0.E+000));
#993 = ( GEOMETRIC_REPRESENTATION_CONTEXT(3) 
GLOBAL_UNCERTAINTY_ASSIGNED_CONTEXT((#997)) GLOBAL_UNIT_ASSIGNED_CONTEXT
((#994,#995,#996)) REPRESENTATION_CONTEXT('Context #1',
  '3D Context with UNIT and UNCERTAINTY') );
#994 = ( LENGTH_UNIT() NAMED_UNIT(*) SI_UNIT(.MILLI.,.METRE.) );
#995 = ( NAMED_UNIT(*) PLANE_ANGLE_UNIT() SI_UNIT($,.RADIAN.) );
#996 = ( NAMED_UNIT(*) SI_UNIT($,.STERADIAN.) SOLID_ANGLE_UNIT() );
#997 = UNCERTAINTY_MEASURE_WITH_UNIT(LENGTH_MEASURE(1.E-007),#994,
  'distance_accuracy_value','confusion accuracy');
#998 = SHAPE_DEFINITION_REPRESENTATION(#999,#63);
#999 = PRODUCT_DEFINITION_SHAPE('','',#1000);
#1000 = PRODUCT_DEFINITION('design','',#1001,#1004);
#1001 = PRODUCT_DEFINITION_FORMATION('','',#1002);
#1002 = PRODUCT('Open CASCADE STEP translator 6.8 2.1.1.1',
  'Open CASCADE STEP translator 6.8 2.1.1.1','',(#1003));
#1003 = PRODUCT_CONTEXT('',#2,'mechanical');
#1004 = PRODUCT_DEFINITION_CONTEXT('part definition',#2,'design');
#1005 = CONTEXT_DEPENDENT_SHAPE_REPRESENTATION(#1006,#1008);
#1006 = ( REPRESENTATION_RELATIONSHIP('','',#63,#53) 
REPRESENTATION_RELATIONSHIP_WITH_TRANSFORMATION(#1007) 
SHAPE_REPRESENTATION_RELATIONSHIP() );
#1007 = ITEM_DEFINED_TRANSFORMATION('','',#11,#54);
#1008 = PRODUCT_DEFINITION_SHAPE('Placement','Placement of an item',
  #1009);
#1009 = NEXT_ASSEMBLY_USAGE_OCCURRENCE('11','','',#48,#1000,$);
#1010 = PRODUCT_RELATED_PRODUCT_CATEGORY('part',$,(#1002));
#1011 = CONTEXT_DEPENDENT_SHAPE_REPRESENTATION(#1012,#1014);
#1012 = ( REPRESENTATION_RELATIONSHIP('','',#53,#36) 
REPRESENTATION_RELATIONSHIP_WITH_TRANSFORMATION(#1013) 
SHAPE_REPRESENTATION_RELATIONSHIP() );
#1013 = ITEM_DEFINED_TRANSFORMATION('','',#11,#37);
#1014 = PRODUCT_DEFINITION_SHAPE('Placement','Placement of an item',
  #1015);
#1015 = NEXT_ASSEMBLY_USAGE_OCCURRENCE('12','','',#31,#48,$);
#1016 = PRODUCT_RELATED_PRODUCT_CATEGORY('part',$,(#50));
#1017 = CONTEXT_DEPENDENT_SHAPE_REPRESENTATION(#1018,#1020);
#1018 = ( REPRESENTATION_RELATIONSHIP('','',#36,#10) 
REPRESENTATION_RELATIONSHIP_WITH_TRANSFORMATION(#1019) 
SHAPE_REPRESENTATION_RELATIONSHIP() );
#1019 = ITEM_DEFINED_TRANSFORMATION('','',#11,#15);
#1020 = PRODUCT_DEFINITION_SHAPE('Placement','Placement of an item',
  #1021);
#1021 = NEXT_ASSEMBLY_USAGE_OCCURRENCE('13','','',#5,#31,$);
#1022 = PRODUCT_RELATED_PRODUCT_CATEGORY('part',$,(#33));
#1023 = SHAPE_DEFINITION_REPRESENTATION(#1024,#1030);
#1024 = PRODUCT_DEFINITION_SHAPE('','',#1025);
#1025 = PRODUCT_DEFINITION('design','',#1026,#1029);
#1026 = PRODUCT_DEFINITION_FORMATION('','',#1027);
#1027 = PRODUCT('D1','D1','',(#1028));
#1028 = PRODUCT_CONTEXT('',#2,'mechanical');
#1029 = PRODUCT_DEFINITION_CONTEXT('part definition',#2,'design');
#1030 = SHAPE_REPRESENTATION('',(#11,#1031,#1035,#1039),#1043);
#1031 = AXIS2_PLACEMENT_3D('',#1032,#1033,#1034);
#1032 = CARTESIAN_POINT('',(32.,30.000001907349,0.E+000));
#1033 = DIRECTION('',(0.E+000,0.E+000,1.));
#1034 = DIRECTION('',(1.,0.E+000,0.E+000));
#1035 = AXIS2_PLACEMENT_3D('',#1036,#1037,#1038);
#1036 = CARTESIAN_POINT('',(32.,30.000001907349,0.299999266863));
#1037 = DIRECTION('',(0.E+000,0.E+000,1.));
#1038 = DIRECTION('',(1.,0.E+000,0.E+000));
#1039 = AXIS2_PLACEMENT_3D('',#1040,#1041,#1042);
#1040 = CARTESIAN_POINT('',(32.,29.35000038147,0.299999266863));
#1041 = DIRECTION('',(0.E+000,0.E+000,1.));
#1042 = DIRECTION('',(1.,0.E+000,0.E+000));
#1043 = ( GEOMETRIC_REPRESENTATION_CONTEXT(3) 
GLOBAL_UNCERTAINTY_ASSIGNED_CONTEXT((#1047)) 
GLOBAL_UNIT_ASSIGNED_CONTEXT((#1044,#1045,#1046)) REPRESENTATION_CONTEXT
('Context #1','3D Context with UNIT and UNCERTAINTY') );
#1044 = ( LENGTH_UNIT() NAMED_UNIT(*) SI_UNIT(.MILLI.,.METRE.) );
#1045 = ( NAMED_UNIT(*) PLANE_ANGLE_UNIT() SI_UNIT($,.RADIAN.) );
#1046 = ( NAMED_UNIT(*) SI_UNIT($,.STERADIAN.) SOLID_ANGLE_UNIT() );
#1047 = UNCERTAINTY_MEASURE_WITH_UNIT(LENGTH_MEASURE(1.E-007),#1044,
  'distance_accuracy_value','confusion accuracy');
#1048 = SHAPE_DEFINITION_REPRESENTATION(#1049,#1055);
#1049 = PRODUCT_DEFINITION_SHAPE('','',#1050);
#1050 = PRODUCT_DEFINITION('design','',#1051,#1054);
#1051 = PRODUCT_DEFINITION_FORMATION('','',#1052);
#1052 = PRODUCT('5900301744','5900301744','',(#1053));
#1053 = PRODUCT_CONTEXT('',#2,'mechanical');
#1054 = PRODUCT_DEFINITION_CONTEXT('part definition',#2,'design');
#1055 = SHAPE_REPRESENTATION('',(#11,#1056),#1060);
#1056 = AXIS2_PLACEMENT_3D('',#1057,#1058,#1059);
#1057 = CARTESIAN_POINT('',(0.E+000,0.E+000,0.E+000));
#1058 = DIRECTION('',(0.E+000,0.E+000,1.));
#1059 = DIRECTION('',(1.,0.E+000,0.E+000));
#1060 = ( GEOMETRIC_REPRESENTATION_CONTEXT(3) 
GLOBAL_UNCERTAINTY_ASSIGNED_CONTEXT((#1064)) 
GLOBAL_UNIT_ASSIGNED_CONTEXT((#1061,#1062,#1063)) REPRESENTATION_CONTEXT
('Context #1','3D Context with UNIT and UNCERTAINTY') );
#1061 = ( LENGTH_UNIT() NAMED_UNIT(*) SI_UNIT(.MILLI.,.METRE.) );
#1062 = ( NAMED_UNIT(*) PLANE_ANGLE_UNIT() SI_UNIT($,.RADIAN.) );
#1063 = ( NAMED_UNIT(*) SI_UNIT($,.STERADIAN.) SOLID_ANGLE_UNIT() );
#1064 = UNCERTAINTY_MEASURE_WITH_UNIT(LENGTH_MEASURE(1.E-007),#1061,
  'distance_accuracy_value','confusion accuracy');
#1065 = ADVANCED_BREP_SHAPE_REPRESENTATION('',(#11,#1066),#1216);
#1066 = MANIFOLD_SOLID_BREP('',#1067);
#1067 = CLOSED_SHELL('',(#1068,#1108,#1139,#1170,#1192,#1204));
#1068 = ADVANCED_FACE('',(#1069),#1103,.F.);
#1069 = FACE_BOUND('',#1070,.F.);
#1070 = EDGE_LOOP('',(#1071,#1081,#1089,#1097));
#1071 = ORIENTED_EDGE('',*,*,#1072,.T.);
#1072 = EDGE_CURVE('',#1073,#1075,#1077,.T.);
#1073 = VERTEX_POINT('',#1074);
#1074 = CARTESIAN_POINT('',(-0.80000094,0.80000094,0.E+000));
#1075 = VERTEX_POINT('',#1076);
#1076 = CARTESIAN_POINT('',(-0.80000094,0.80000094,0.2999994));
#1077 = LINE('',#1078,#1079);
#1078 = CARTESIAN_POINT('',(-0.80000094,0.80000094,0.E+000));
#1079 = VECTOR('',#1080,1.);
#1080 = DIRECTION('',(0.E+000,0.E+000,1.));
#1081 = ORIENTED_EDGE('',*,*,#1082,.T.);
#1082 = EDGE_CURVE('',#1075,#1083,#1085,.T.);
#1083 = VERTEX_POINT('',#1084);
#1084 = CARTESIAN_POINT('',(-0.80000094,-0.80000094,0.2999994));
#1085 = LINE('',#1086,#1087);
#1086 = CARTESIAN_POINT('',(-0.80000094,0.80000094,0.2999994));
#1087 = VECTOR('',#1088,1.);
#1088 = DIRECTION('',(0.E+000,-1.,0.E+000));
#1089 = ORIENTED_EDGE('',*,*,#1090,.F.);
#1090 = EDGE_CURVE('',#1091,#1083,#1093,.T.);
#1091 = VERTEX_POINT('',#1092);
#1092 = CARTESIAN_POINT('',(-0.80000094,-0.80000094,0.E+000));
#1093 = LINE('',#1094,#1095);
#1094 = CARTESIAN_POINT('',(-0.80000094,-0.80000094,0.E+000));
#1095 = VECTOR('',#1096,1.);
#1096 = DIRECTION('',(0.E+000,0.E+000,1.));
#1097 = ORIENTED_EDGE('',*,*,#1098,.F.);
#1098 = EDGE_CURVE('',#1073,#1091,#1099,.T.);
#1099 = LINE('',#1100,#1101);
#1100 = CARTESIAN_POINT('',(-0.80000094,0.80000094,0.E+000));
#1101 = VECTOR('',#1102,1.);
#1102 = DIRECTION('',(0.E+000,-1.,0.E+000));
#1103 = PLANE('',#1104);
#1104 = AXIS2_PLACEMENT_3D('',#1105,#1106,#1107);
#1105 = CARTESIAN_POINT('',(-0.80000094,0.80000094,0.E+000));
#1106 = DIRECTION('',(1.,0.E+000,-0.E+000));
#1107 = DIRECTION('',(0.E+000,-1.,0.E+000));
#1108 = ADVANCED_FACE('',(#1109),#1134,.F.);
#1109 = FACE_BOUND('',#1110,.F.);
#1110 = EDGE_LOOP('',(#1111,#1112,#1120,#1128));
#1111 = ORIENTED_EDGE('',*,*,#1090,.T.);
#1112 = ORIENTED_EDGE('',*,*,#1113,.T.);
#1113 = EDGE_CURVE('',#1083,#1114,#1116,.T.);
#1114 = VERTEX_POINT('',#1115);
#1115 = CARTESIAN_POINT('',(0.80000094,-0.80000094,0.2999994));
#1116 = LINE('',#1117,#1118);
#1117 = CARTESIAN_POINT('',(-0.80000094,-0.80000094,0.2999994));
#1118 = VECTOR('',#1119,1.);
#1119 = DIRECTION('',(1.,0.E+000,0.E+000));
#1120 = ORIENTED_EDGE('',*,*,#1121,.F.);
#1121 = EDGE_CURVE('',#1122,#1114,#1124,.T.);
#1122 = VERTEX_POINT('',#1123);
#1123 = CARTESIAN_POINT('',(0.80000094,-0.80000094,0.E+000));
#1124 = LINE('',#1125,#1126);
#1125 = CARTESIAN_POINT('',(0.80000094,-0.80000094,0.E+000));
#1126 = VECTOR('',#1127,1.);
#1127 = DIRECTION('',(0.E+000,0.E+000,1.));
#1128 = ORIENTED_EDGE('',*,*,#1129,.F.);
#1129 = EDGE_CURVE('',#1091,#1122,#1130,.T.);
#1130 = LINE('',#1131,#1132);
#1131 = CARTESIAN_POINT('',(-0.80000094,-0.80000094,0.E+000));
#1132 = VECTOR('',#1133,1.);
#1133 = DIRECTION('',(1.,0.E+000,0.E+000));
#1134 = PLANE('',#1135);
#1135 = AXIS2_PLACEMENT_3D('',#1136,#1137,#1138);
#1136 = CARTESIAN_POINT('',(-0.80000094,-0.80000094,0.E+000));
#1137 = DIRECTION('',(0.E+000,1.,0.E+000));
#1138 = DIRECTION('',(1.,0.E+000,0.E+000));
#1139 = ADVANCED_FACE('',(#1140),#1165,.F.);
#1140 = FACE_BOUND('',#1141,.F.);
#1141 = EDGE_LOOP('',(#1142,#1143,#1151,#1159));
#1142 = ORIENTED_EDGE('',*,*,#1121,.T.);
#1143 = ORIENTED_EDGE('',*,*,#1144,.T.);
#1144 = EDGE_CURVE('',#1114,#1145,#1147,.T.);
#1145 = VERTEX_POINT('',#1146);
#1146 = CARTESIAN_POINT('',(0.80000094,0.80000094,0.2999994));
#1147 = LINE('',#1148,#1149);
#1148 = CARTESIAN_POINT('',(0.80000094,-0.80000094,0.2999994));
#1149 = VECTOR('',#1150,1.);
#1150 = DIRECTION('',(0.E+000,1.,0.E+000));
#1151 = ORIENTED_EDGE('',*,*,#1152,.F.);
#1152 = EDGE_CURVE('',#1153,#1145,#1155,.T.);
#1153 = VERTEX_POINT('',#1154);
#1154 = CARTESIAN_POINT('',(0.80000094,0.80000094,0.E+000));
#1155 = LINE('',#1156,#1157);
#1156 = CARTESIAN_POINT('',(0.80000094,0.80000094,0.E+000));
#1157 = VECTOR('',#1158,1.);
#1158 = DIRECTION('',(0.E+000,0.E+000,1.));
#1159 = ORIENTED_EDGE('',*,*,#1160,.F.);
#1160 = EDGE_CURVE('',#1122,#1153,#1161,.T.);
#1161 = LINE('',#1162,#1163);
#1162 = CARTESIAN_POINT('',(0.80000094,-0.80000094,0.E+000));
#1163 = VECTOR('',#1164,1.);
#1164 = DIRECTION('',(0.E+000,1.,0.E+000));
#1165 = PLANE('',#1166);
#1166 = AXIS2_PLACEMENT_3D('',#1167,#1168,#1169);
#1167 = CARTESIAN_POINT('',(0.80000094,-0.80000094,0.E+000));
#1168 = DIRECTION('',(-1.,0.E+000,0.E+000));
#1169 = DIRECTION('',(0.E+000,1.,0.E+000));
#1170 = ADVANCED_FACE('',(#1171),#1187,.F.);
#1171 = FACE_BOUND('',#1172,.F.);
#1172 = EDGE_LOOP('',(#1173,#1174,#1180,#1181));
#1173 = ORIENTED_EDGE('',*,*,#1152,.T.);
#1174 = ORIENTED_EDGE('',*,*,#1175,.T.);
#1175 = EDGE_CURVE('',#1145,#1075,#1176,.T.);
#1176 = LINE('',#1177,#1178);
#1177 = CARTESIAN_POINT('',(0.80000094,0.80000094,0.2999994));
#1178 = VECTOR('',#1179,1.);
#1179 = DIRECTION('',(-1.,0.E+000,0.E+000));
#1180 = ORIENTED_EDGE('',*,*,#1072,.F.);
#1181 = ORIENTED_EDGE('',*,*,#1182,.F.);
#1182 = EDGE_CURVE('',#1153,#1073,#1183,.T.);
#1183 = LINE('',#1184,#1185);
#1184 = CARTESIAN_POINT('',(0.80000094,0.80000094,0.E+000));
#1185 = VECTOR('',#1186,1.);
#1186 = DIRECTION('',(-1.,0.E+000,0.E+000));
#1187 = PLANE('',#1188);
#1188 = AXIS2_PLACEMENT_3D('',#1189,#1190,#1191);
#1189 = CARTESIAN_POINT('',(0.80000094,0.80000094,0.E+000));
#1190 = DIRECTION('',(0.E+000,-1.,0.E+000));
#1191 = DIRECTION('',(-1.,0.E+000,0.E+000));
#1192 = ADVANCED_FACE('',(#1193),#1199,.T.);
#1193 = FACE_BOUND('',#1194,.F.);
#1194 = EDGE_LOOP('',(#1195,#1196,#1197,#1198));
#1195 = ORIENTED_EDGE('',*,*,#1098,.T.);
#1196 = ORIENTED_EDGE('',*,*,#1129,.T.);
#1197 = ORIENTED_EDGE('',*,*,#1160,.T.);
#1198 = ORIENTED_EDGE('',*,*,#1182,.T.);
#1199 = PLANE('',#1200);
#1200 = AXIS2_PLACEMENT_3D('',#1201,#1202,#1203);
#1201 = CARTESIAN_POINT('',(-0.80000094,0.80000094,0.E+000));
#1202 = DIRECTION('',(0.E+000,0.E+000,-1.));
#1203 = DIRECTION('',(-1.,0.E+000,-0.E+000));
#1204 = ADVANCED_FACE('',(#1205),#1211,.F.);
#1205 = FACE_BOUND('',#1206,.T.);
#1206 = EDGE_LOOP('',(#1207,#1208,#1209,#1210));
#1207 = ORIENTED_EDGE('',*,*,#1082,.T.);
#1208 = ORIENTED_EDGE('',*,*,#1113,.T.);
#1209 = ORIENTED_EDGE('',*,*,#1144,.T.);
#1210 = ORIENTED_EDGE('',*,*,#1175,.T.);
#1211 = PLANE('',#1212);
#1212 = AXIS2_PLACEMENT_3D('',#1213,#1214,#1215);
#1213 = CARTESIAN_POINT('',(-0.80000094,0.80000094,0.2999994));
#1214 = DIRECTION('',(0.E+000,0.E+000,-1.));
#1215 = DIRECTION('',(-1.,0.E+000,-0.E+000));
#1216 = ( GEOMETRIC_REPRESENTATION_CONTEXT(3) 
GLOBAL_UNCERTAINTY_ASSIGNED_CONTEXT((#1220)) 
GLOBAL_UNIT_ASSIGNED_CONTEXT((#1217,#1218,#1219)) REPRESENTATION_CONTEXT
('Context #1','3D Context with UNIT and UNCERTAINTY') );
#1217 = ( LENGTH_UNIT() NAMED_UNIT(*) SI_UNIT(.MILLI.,.METRE.) );
#1218 = ( NAMED_UNIT(*) PLANE_ANGLE_UNIT() SI_UNIT($,.RADIAN.) );
#1219 = ( NAMED_UNIT(*) SI_UNIT($,.STERADIAN.) SOLID_ANGLE_UNIT() );
#1220 = UNCERTAINTY_MEASURE_WITH_UNIT(LENGTH_MEASURE(1.E-007),#1217,
  'distance_accuracy_value','confusion accuracy');
#1221 = SHAPE_DEFINITION_REPRESENTATION(#1222,#1065);
#1222 = PRODUCT_DEFINITION_SHAPE('','',#1223);
#1223 = PRODUCT_DEFINITION('design','',#1224,#1227);
#1224 = PRODUCT_DEFINITION_FORMATION('','',#1225);
#1225 = PRODUCT('Extruded','Extruded','',(#1226));
#1226 = PRODUCT_CONTEXT('',#2,'mechanical');
#1227 = PRODUCT_DEFINITION_CONTEXT('part definition',#2,'design');
#1228 = CONTEXT_DEPENDENT_SHAPE_REPRESENTATION(#1229,#1231);
#1229 = ( REPRESENTATION_RELATIONSHIP('','',#1065,#1055) 
REPRESENTATION_RELATIONSHIP_WITH_TRANSFORMATION(#1230) 
SHAPE_REPRESENTATION_RELATIONSHIP() );
#1230 = ITEM_DEFINED_TRANSFORMATION('','',#11,#1056);
#1231 = PRODUCT_DEFINITION_SHAPE('Placement','Placement of an item',
  #1232);
#1232 = NEXT_ASSEMBLY_USAGE_OCCURRENCE('14','3','',#1050,#1223,$);
#1233 = PRODUCT_RELATED_PRODUCT_CATEGORY('part',$,(#1225));
#1234 = CONTEXT_DEPENDENT_SHAPE_REPRESENTATION(#1235,#1237);
#1235 = ( REPRESENTATION_RELATIONSHIP('','',#1055,#1030) 
REPRESENTATION_RELATIONSHIP_WITH_TRANSFORMATION(#1236) 
SHAPE_REPRESENTATION_RELATIONSHIP() );
#1236 = ITEM_DEFINED_TRANSFORMATION('','',#11,#1031);
#1237 = PRODUCT_DEFINITION_SHAPE('Placement','Placement of an item',
  #1238);
#1238 = NEXT_ASSEMBLY_USAGE_OCCURRENCE('15','','',#1025,#1050,$);
#1239 = PRODUCT_RELATED_PRODUCT_CATEGORY('part',$,(#1052));
#1240 = SHAPE_DEFINITION_REPRESENTATION(#1241,#1247);
#1241 = PRODUCT_DEFINITION_SHAPE('','',#1242);
#1242 = PRODUCT_DEFINITION('design','',#1243,#1246);
#1243 = PRODUCT_DEFINITION_FORMATION('','',#1244);
#1244 = PRODUCT('6807838192','6807838192','',(#1245));
#1245 = PRODUCT_CONTEXT('',#2,'mechanical');
#1246 = PRODUCT_DEFINITION_CONTEXT('part definition',#2,'design');
#1247 = SHAPE_REPRESENTATION('',(#11,#1248),#1252);
#1248 = AXIS2_PLACEMENT_3D('',#1249,#1250,#1251);
#1249 = CARTESIAN_POINT('',(0.E+000,0.E+000,0.E+000));
#1250 = DIRECTION('',(0.E+000,0.E+000,1.));
#1251 = DIRECTION('',(1.,0.E+000,0.E+000));
#1252 = ( GEOMETRIC_REPRESENTATION_CONTEXT(3) 
GLOBAL_UNCERTAINTY_ASSIGNED_CONTEXT((#1256)) 
GLOBAL_UNIT_ASSIGNED_CONTEXT((#1253,#1254,#1255)) REPRESENTATION_CONTEXT
('Context #1','3D Context with UNIT and UNCERTAINTY') );
#1253 = ( LENGTH_UNIT() NAMED_UNIT(*) SI_UNIT(.MILLI.,.METRE.) );
#1254 = ( NAMED_UNIT(*) PLANE_ANGLE_UNIT() SI_UNIT($,.RADIAN.) );
#1255 = ( NAMED_UNIT(*) SI_UNIT($,.STERADIAN.) SOLID_ANGLE_UNIT() );
#1256 = UNCERTAINTY_MEASURE_WITH_UNIT(LENGTH_MEASURE(1.E-007),#1253,
  'distance_accuracy_value','confusion accuracy');
#1257 = ADVANCED_BREP_SHAPE_REPRESENTATION('',(#11,#1258),#1408);
#1258 = MANIFOLD_SOLID_BREP('',#1259);
#1259 = CLOSED_SHELL('',(#1260,#1300,#1331,#1362,#1384,#1396));
#1260 = ADVANCED_FACE('',(#1261),#1295,.T.);
#1261 = FACE_BOUND('',#1262,.T.);
#1262 = EDGE_LOOP('',(#1263,#1273,#1281,#1289));
#1263 = ORIENTED_EDGE('',*,*,#1264,.T.);
#1264 = EDGE_CURVE('',#1265,#1267,#1269,.T.);
#1265 = VERTEX_POINT('',#1266);
#1266 = CARTESIAN_POINT('',(0.80000094,0.499999,0.E+000));
#1267 = VERTEX_POINT('',#1268);
#1268 = CARTESIAN_POINT('',(0.80000094,0.499999,0.2999994));
#1269 = LINE('',#1270,#1271);
#1270 = CARTESIAN_POINT('',(0.80000094,0.499999,0.E+000));
#1271 = VECTOR('',#1272,1.);
#1272 = DIRECTION('',(0.E+000,0.E+000,1.));
#1273 = ORIENTED_EDGE('',*,*,#1274,.T.);
#1274 = EDGE_CURVE('',#1267,#1275,#1277,.T.);
#1275 = VERTEX_POINT('',#1276);
#1276 = CARTESIAN_POINT('',(0.80000094,-0.499999,0.2999994));
#1277 = LINE('',#1278,#1279);
#1278 = CARTESIAN_POINT('',(0.80000094,0.499999,0.2999994));
#1279 = VECTOR('',#1280,1.);
#1280 = DIRECTION('',(0.E+000,-1.,0.E+000));
#1281 = ORIENTED_EDGE('',*,*,#1282,.F.);
#1282 = EDGE_CURVE('',#1283,#1275,#1285,.T.);
#1283 = VERTEX_POINT('',#1284);
#1284 = CARTESIAN_POINT('',(0.80000094,-0.499999,0.E+000));
#1285 = LINE('',#1286,#1287);
#1286 = CARTESIAN_POINT('',(0.80000094,-0.499999,0.E+000));
#1287 = VECTOR('',#1288,1.);
#1288 = DIRECTION('',(0.E+000,0.E+000,1.));
#1289 = ORIENTED_EDGE('',*,*,#1290,.F.);
#1290 = EDGE_CURVE('',#1265,#1283,#1291,.T.);
#1291 = LINE('',#1292,#1293);
#1292 = CARTESIAN_POINT('',(0.80000094,0.499999,0.E+000));
#1293 = VECTOR('',#1294,1.);
#1294 = DIRECTION('',(0.E+000,-1.,0.E+000));
#1295 = PLANE('',#1296);
#1296 = AXIS2_PLACEMENT_3D('',#1297,#1298,#1299);
#1297 = CARTESIAN_POINT('',(0.80000094,0.499999,0.E+000));
#1298 = DIRECTION('',(1.,0.E+000,-0.E+000));
#1299 = DIRECTION('',(0.E+000,-1.,0.E+000));
#1300 = ADVANCED_FACE('',(#1301),#1326,.T.);
#1301 = FACE_BOUND('',#1302,.T.);
#1302 = EDGE_LOOP('',(#1303,#1304,#1312,#1320));
#1303 = ORIENTED_EDGE('',*,*,#1282,.T.);
#1304 = ORIENTED_EDGE('',*,*,#1305,.T.);
#1305 = EDGE_CURVE('',#1275,#1306,#1308,.T.);
#1306 = VERTEX_POINT('',#1307);
#1307 = CARTESIAN_POINT('',(-0.80000094,-0.499999,0.2999994));
#1308 = LINE('',#1309,#1310);
#1309 = CARTESIAN_POINT('',(0.80000094,-0.499999,0.2999994));
#1310 = VECTOR('',#1311,1.);
#1311 = DIRECTION('',(-1.,0.E+000,0.E+000));
#1312 = ORIENTED_EDGE('',*,*,#1313,.F.);
#1313 = EDGE_CURVE('',#1314,#1306,#1316,.T.);
#1314 = VERTEX_POINT('',#1315);
#1315 = CARTESIAN_POINT('',(-0.80000094,-0.499999,0.E+000));
#1316 = LINE('',#1317,#1318);
#1317 = CARTESIAN_POINT('',(-0.80000094,-0.499999,0.E+000));
#1318 = VECTOR('',#1319,1.);
#1319 = DIRECTION('',(0.E+000,0.E+000,1.));
#1320 = ORIENTED_EDGE('',*,*,#1321,.F.);
#1321 = EDGE_CURVE('',#1283,#1314,#1322,.T.);
#1322 = LINE('',#1323,#1324);
#1323 = CARTESIAN_POINT('',(0.80000094,-0.499999,0.E+000));
#1324 = VECTOR('',#1325,1.);
#1325 = DIRECTION('',(-1.,0.E+000,0.E+000));
#1326 = PLANE('',#1327);
#1327 = AXIS2_PLACEMENT_3D('',#1328,#1329,#1330);
#1328 = CARTESIAN_POINT('',(0.80000094,-0.499999,0.E+000));
#1329 = DIRECTION('',(0.E+000,-1.,0.E+000));
#1330 = DIRECTION('',(-1.,0.E+000,0.E+000));
#1331 = ADVANCED_FACE('',(#1332),#1357,.T.);
#1332 = FACE_BOUND('',#1333,.T.);
#1333 = EDGE_LOOP('',(#1334,#1335,#1343,#1351));
#1334 = ORIENTED_EDGE('',*,*,#1313,.T.);
#1335 = ORIENTED_EDGE('',*,*,#1336,.T.);
#1336 = EDGE_CURVE('',#1306,#1337,#1339,.T.);
#1337 = VERTEX_POINT('',#1338);
#1338 = CARTESIAN_POINT('',(-0.80000094,0.499999,0.2999994));
#1339 = LINE('',#1340,#1341);
#1340 = CARTESIAN_POINT('',(-0.80000094,-0.499999,0.2999994));
#1341 = VECTOR('',#1342,1.);
#1342 = DIRECTION('',(0.E+000,1.,0.E+000));
#1343 = ORIENTED_EDGE('',*,*,#1344,.F.);
#1344 = EDGE_CURVE('',#1345,#1337,#1347,.T.);
#1345 = VERTEX_POINT('',#1346);
#1346 = CARTESIAN_POINT('',(-0.80000094,0.499999,0.E+000));
#1347 = LINE('',#1348,#1349);
#1348 = CARTESIAN_POINT('',(-0.80000094,0.499999,0.E+000));
#1349 = VECTOR('',#1350,1.);
#1350 = DIRECTION('',(0.E+000,0.E+000,1.));
#1351 = ORIENTED_EDGE('',*,*,#1352,.F.);
#1352 = EDGE_CURVE('',#1314,#1345,#1353,.T.);
#1353 = LINE('',#1354,#1355);
#1354 = CARTESIAN_POINT('',(-0.80000094,-0.499999,0.E+000));
#1355 = VECTOR('',#1356,1.);
#1356 = DIRECTION('',(0.E+000,1.,0.E+000));
#1357 = PLANE('',#1358);
#1358 = AXIS2_PLACEMENT_3D('',#1359,#1360,#1361);
#1359 = CARTESIAN_POINT('',(-0.80000094,-0.499999,0.E+000));
#1360 = DIRECTION('',(-1.,0.E+000,0.E+000));
#1361 = DIRECTION('',(0.E+000,1.,0.E+000));
#1362 = ADVANCED_FACE('',(#1363),#1379,.T.);
#1363 = FACE_BOUND('',#1364,.T.);
#1364 = EDGE_LOOP('',(#1365,#1366,#1372,#1373));
#1365 = ORIENTED_EDGE('',*,*,#1344,.T.);
#1366 = ORIENTED_EDGE('',*,*,#1367,.T.);
#1367 = EDGE_CURVE('',#1337,#1267,#1368,.T.);
#1368 = LINE('',#1369,#1370);
#1369 = CARTESIAN_POINT('',(-0.80000094,0.499999,0.2999994));
#1370 = VECTOR('',#1371,1.);
#1371 = DIRECTION('',(1.,0.E+000,0.E+000));
#1372 = ORIENTED_EDGE('',*,*,#1264,.F.);
#1373 = ORIENTED_EDGE('',*,*,#1374,.F.);
#1374 = EDGE_CURVE('',#1345,#1265,#1375,.T.);
#1375 = LINE('',#1376,#1377);
#1376 = CARTESIAN_POINT('',(-0.80000094,0.499999,0.E+000));
#1377 = VECTOR('',#1378,1.);
#1378 = DIRECTION('',(1.,0.E+000,0.E+000));
#1379 = PLANE('',#1380);
#1380 = AXIS2_PLACEMENT_3D('',#1381,#1382,#1383);
#1381 = CARTESIAN_POINT('',(-0.80000094,0.499999,0.E+000));
#1382 = DIRECTION('',(0.E+000,1.,0.E+000));
#1383 = DIRECTION('',(1.,0.E+000,0.E+000));
#1384 = ADVANCED_FACE('',(#1385),#1391,.F.);
#1385 = FACE_BOUND('',#1386,.T.);
#1386 = EDGE_LOOP('',(#1387,#1388,#1389,#1390));
#1387 = ORIENTED_EDGE('',*,*,#1290,.T.);
#1388 = ORIENTED_EDGE('',*,*,#1321,.T.);
#1389 = ORIENTED_EDGE('',*,*,#1352,.T.);
#1390 = ORIENTED_EDGE('',*,*,#1374,.T.);
#1391 = PLANE('',#1392);
#1392 = AXIS2_PLACEMENT_3D('',#1393,#1394,#1395);
#1393 = CARTESIAN_POINT('',(0.80000094,0.499999,0.E+000));
#1394 = DIRECTION('',(0.E+000,0.E+000,1.));
#1395 = DIRECTION('',(1.,0.E+000,-0.E+000));
#1396 = ADVANCED_FACE('',(#1397),#1403,.T.);
#1397 = FACE_BOUND('',#1398,.F.);
#1398 = EDGE_LOOP('',(#1399,#1400,#1401,#1402));
#1399 = ORIENTED_EDGE('',*,*,#1274,.T.);
#1400 = ORIENTED_EDGE('',*,*,#1305,.T.);
#1401 = ORIENTED_EDGE('',*,*,#1336,.T.);
#1402 = ORIENTED_EDGE('',*,*,#1367,.T.);
#1403 = PLANE('',#1404);
#1404 = AXIS2_PLACEMENT_3D('',#1405,#1406,#1407);
#1405 = CARTESIAN_POINT('',(0.80000094,0.499999,0.2999994));
#1406 = DIRECTION('',(0.E+000,0.E+000,1.));
#1407 = DIRECTION('',(1.,0.E+000,-0.E+000));
#1408 = ( GEOMETRIC_REPRESENTATION_CONTEXT(3) 
GLOBAL_UNCERTAINTY_ASSIGNED_CONTEXT((#1412)) 
GLOBAL_UNIT_ASSIGNED_CONTEXT((#1409,#1410,#1411)) REPRESENTATION_CONTEXT
('Context #1','3D Context with UNIT and UNCERTAINTY') );
#1409 = ( LENGTH_UNIT() NAMED_UNIT(*) SI_UNIT(.MILLI.,.METRE.) );
#1410 = ( NAMED_UNIT(*) PLANE_ANGLE_UNIT() SI_UNIT($,.RADIAN.) );
#1411 = ( NAMED_UNIT(*) SI_UNIT($,.STERADIAN.) SOLID_ANGLE_UNIT() );
#1412 = UNCERTAINTY_MEASURE_WITH_UNIT(LENGTH_MEASURE(1.E-007),#1409,
  'distance_accuracy_value','confusion accuracy');
#1413 = SHAPE_DEFINITION_REPRESENTATION(#1414,#1257);
#1414 = PRODUCT_DEFINITION_SHAPE('','',#1415);
#1415 = PRODUCT_DEFINITION('design','',#1416,#1419);
#1416 = PRODUCT_DEFINITION_FORMATION('','',#1417);
#1417 = PRODUCT('Extruded','Extruded','',(#1418));
#1418 = PRODUCT_CONTEXT('',#2,'mechanical');
#1419 = PRODUCT_DEFINITION_CONTEXT('part definition',#2,'design');
#1420 = CONTEXT_DEPENDENT_SHAPE_REPRESENTATION(#1421,#1423);
#1421 = ( REPRESENTATION_RELATIONSHIP('','',#1257,#1247) 
REPRESENTATION_RELATIONSHIP_WITH_TRANSFORMATION(#1422) 
SHAPE_REPRESENTATION_RELATIONSHIP() );
#1422 = ITEM_DEFINED_TRANSFORMATION('','',#11,#1248);
#1423 = PRODUCT_DEFINITION_SHAPE('Placement','Placement of an item',
  #1424);
#1424 = NEXT_ASSEMBLY_USAGE_OCCURRENCE('16','1','',#1242,#1415,$);
#1425 = PRODUCT_RELATED_PRODUCT_CATEGORY('part',$,(#1417));
#1426 = CONTEXT_DEPENDENT_SHAPE_REPRESENTATION(#1427,#1429);
#1427 = ( REPRESENTATION_RELATIONSHIP('','',#1247,#1030) 
REPRESENTATION_RELATIONSHIP_WITH_TRANSFORMATION(#1428) 
SHAPE_REPRESENTATION_RELATIONSHIP() );
#1428 = ITEM_DEFINED_TRANSFORMATION('','',#11,#1035);
#1429 = PRODUCT_DEFINITION_SHAPE('Placement','Placement of an item',
  #1430);
#1430 = NEXT_ASSEMBLY_USAGE_OCCURRENCE('17','','',#1025,#1242,$);
#1431 = PRODUCT_RELATED_PRODUCT_CATEGORY('part',$,(#1244));
#1432 = SHAPE_DEFINITION_REPRESENTATION(#1433,#1439);
#1433 = PRODUCT_DEFINITION_SHAPE('','',#1434);
#1434 = PRODUCT_DEFINITION('design','',#1435,#1438);
#1435 = PRODUCT_DEFINITION_FORMATION('','',#1436);
#1436 = PRODUCT('6807834352','6807834352','',(#1437));
#1437 = PRODUCT_CONTEXT('',#2,'mechanical');
#1438 = PRODUCT_DEFINITION_CONTEXT('part definition',#2,'design');
#1439 = SHAPE_REPRESENTATION('',(#11,#1440),#1444);
#1440 = AXIS2_PLACEMENT_3D('',#1441,#1442,#1443);
#1441 = CARTESIAN_POINT('',(0.E+000,0.E+000,0.E+000));
#1442 = DIRECTION('',(0.E+000,0.E+000,1.));
#1443 = DIRECTION('',(1.,0.E+000,0.E+000));
#1444 = ( GEOMETRIC_REPRESENTATION_CONTEXT(3) 
GLOBAL_UNCERTAINTY_ASSIGNED_CONTEXT((#1448)) 
GLOBAL_UNIT_ASSIGNED_CONTEXT((#1445,#1446,#1447)) REPRESENTATION_CONTEXT
('Context #1','3D Context with UNIT and UNCERTAINTY') );
#1445 = ( LENGTH_UNIT() NAMED_UNIT(*) SI_UNIT(.MILLI.,.METRE.) );
#1446 = ( NAMED_UNIT(*) PLANE_ANGLE_UNIT() SI_UNIT($,.RADIAN.) );
#1447 = ( NAMED_UNIT(*) SI_UNIT($,.STERADIAN.) SOLID_ANGLE_UNIT() );
#1448 = UNCERTAINTY_MEASURE_WITH_UNIT(LENGTH_MEASURE(1.E-007),#1445,
  'distance_accuracy_value','confusion accuracy');
#1449 = ADVANCED_BREP_SHAPE_REPRESENTATION('',(#11,#1450),#1600);
#1450 = MANIFOLD_SOLID_BREP('',#1451);
#1451 = CLOSED_SHELL('',(#1452,#1492,#1523,#1554,#1576,#1588));
#1452 = ADVANCED_FACE('',(#1453),#1487,.F.);
#1453 = FACE_BOUND('',#1454,.F.);
#1454 = EDGE_LOOP('',(#1455,#1465,#1473,#1481));
#1455 = ORIENTED_EDGE('',*,*,#1456,.T.);
#1456 = EDGE_CURVE('',#1457,#1459,#1461,.T.);
#1457 = VERTEX_POINT('',#1458);
#1458 = CARTESIAN_POINT('',(-0.1999996,-0.1499997,0.E+000));
#1459 = VERTEX_POINT('',#1460);
#1460 = CARTESIAN_POINT('',(-0.1999996,-0.1499997,4.99999E-002));
#1461 = LINE('',#1462,#1463);
#1462 = CARTESIAN_POINT('',(-0.1999996,-0.1499997,0.E+000));
#1463 = VECTOR('',#1464,1.);
#1464 = DIRECTION('',(0.E+000,0.E+000,1.));
#1465 = ORIENTED_EDGE('',*,*,#1466,.T.);
#1466 = EDGE_CURVE('',#1459,#1467,#1469,.T.);
#1467 = VERTEX_POINT('',#1468);
#1468 = CARTESIAN_POINT('',(0.1999996,-0.1499997,4.99999E-002));
#1469 = LINE('',#1470,#1471);
#1470 = CARTESIAN_POINT('',(-0.1999996,-0.1499997,4.99999E-002));
#1471 = VECTOR('',#1472,1.);
#1472 = DIRECTION('',(1.,0.E+000,0.E+000));
#1473 = ORIENTED_EDGE('',*,*,#1474,.F.);
#1474 = EDGE_CURVE('',#1475,#1467,#1477,.T.);
#1475 = VERTEX_POINT('',#1476);
#1476 = CARTESIAN_POINT('',(0.1999996,-0.1499997,0.E+000));
#1477 = LINE('',#1478,#1479);
#1478 = CARTESIAN_POINT('',(0.1999996,-0.1499997,0.E+000));
#1479 = VECTOR('',#1480,1.);
#1480 = DIRECTION('',(0.E+000,0.E+000,1.));
#1481 = ORIENTED_EDGE('',*,*,#1482,.F.);
#1482 = EDGE_CURVE('',#1457,#1475,#1483,.T.);
#1483 = LINE('',#1484,#1485);
#1484 = CARTESIAN_POINT('',(-0.1999996,-0.1499997,0.E+000));
#1485 = VECTOR('',#1486,1.);
#1486 = DIRECTION('',(1.,0.E+000,0.E+000));
#1487 = PLANE('',#1488);
#1488 = AXIS2_PLACEMENT_3D('',#1489,#1490,#1491);
#1489 = CARTESIAN_POINT('',(-0.1999996,-0.1499997,0.E+000));
#1490 = DIRECTION('',(0.E+000,1.,0.E+000));
#1491 = DIRECTION('',(1.,0.E+000,0.E+000));
#1492 = ADVANCED_FACE('',(#1493),#1518,.F.);
#1493 = FACE_BOUND('',#1494,.F.);
#1494 = EDGE_LOOP('',(#1495,#1496,#1504,#1512));
#1495 = ORIENTED_EDGE('',*,*,#1474,.T.);
#1496 = ORIENTED_EDGE('',*,*,#1497,.T.);
#1497 = EDGE_CURVE('',#1467,#1498,#1500,.T.);
#1498 = VERTEX_POINT('',#1499);
#1499 = CARTESIAN_POINT('',(0.1999996,0.15000224,4.99999E-002));
#1500 = LINE('',#1501,#1502);
#1501 = CARTESIAN_POINT('',(0.1999996,-0.1499997,4.99999E-002));
#1502 = VECTOR('',#1503,1.);
#1503 = DIRECTION('',(0.E+000,1.,0.E+000));
#1504 = ORIENTED_EDGE('',*,*,#1505,.F.);
#1505 = EDGE_CURVE('',#1506,#1498,#1508,.T.);
#1506 = VERTEX_POINT('',#1507);
#1507 = CARTESIAN_POINT('',(0.1999996,0.15000224,0.E+000));
#1508 = LINE('',#1509,#1510);
#1509 = CARTESIAN_POINT('',(0.1999996,0.15000224,0.E+000));
#1510 = VECTOR('',#1511,1.);
#1511 = DIRECTION('',(0.E+000,0.E+000,1.));
#1512 = ORIENTED_EDGE('',*,*,#1513,.F.);
#1513 = EDGE_CURVE('',#1475,#1506,#1514,.T.);
#1514 = LINE('',#1515,#1516);
#1515 = CARTESIAN_POINT('',(0.1999996,-0.1499997,0.E+000));
#1516 = VECTOR('',#1517,1.);
#1517 = DIRECTION('',(0.E+000,1.,0.E+000));
#1518 = PLANE('',#1519);
#1519 = AXIS2_PLACEMENT_3D('',#1520,#1521,#1522);
#1520 = CARTESIAN_POINT('',(0.1999996,-0.1499997,0.E+000));
#1521 = DIRECTION('',(-1.,0.E+000,0.E+000));
#1522 = DIRECTION('',(0.E+000,1.,0.E+000));
#1523 = ADVANCED_FACE('',(#1524),#1549,.F.);
#1524 = FACE_BOUND('',#1525,.F.);
#1525 = EDGE_LOOP('',(#1526,#1527,#1535,#1543));
#1526 = ORIENTED_EDGE('',*,*,#1505,.T.);
#1527 = ORIENTED_EDGE('',*,*,#1528,.T.);
#1528 = EDGE_CURVE('',#1498,#1529,#1531,.T.);
#1529 = VERTEX_POINT('',#1530);
#1530 = CARTESIAN_POINT('',(-0.1999996,0.15000224,4.99999E-002));
#1531 = LINE('',#1532,#1533);
#1532 = CARTESIAN_POINT('',(0.1999996,0.15000224,4.99999E-002));
#1533 = VECTOR('',#1534,1.);
#1534 = DIRECTION('',(-1.,0.E+000,0.E+000));
#1535 = ORIENTED_EDGE('',*,*,#1536,.F.);
#1536 = EDGE_CURVE('',#1537,#1529,#1539,.T.);
#1537 = VERTEX_POINT('',#1538);
#1538 = CARTESIAN_POINT('',(-0.1999996,0.15000224,0.E+000));
#1539 = LINE('',#1540,#1541);
#1540 = CARTESIAN_POINT('',(-0.1999996,0.15000224,0.E+000));
#1541 = VECTOR('',#1542,1.);
#1542 = DIRECTION('',(0.E+000,0.E+000,1.));
#1543 = ORIENTED_EDGE('',*,*,#1544,.F.);
#1544 = EDGE_CURVE('',#1506,#1537,#1545,.T.);
#1545 = LINE('',#1546,#1547);
#1546 = CARTESIAN_POINT('',(0.1999996,0.15000224,0.E+000));
#1547 = VECTOR('',#1548,1.);
#1548 = DIRECTION('',(-1.,0.E+000,0.E+000));
#1549 = PLANE('',#1550);
#1550 = AXIS2_PLACEMENT_3D('',#1551,#1552,#1553);
#1551 = CARTESIAN_POINT('',(0.1999996,0.15000224,0.E+000));
#1552 = DIRECTION('',(0.E+000,-1.,0.E+000));
#1553 = DIRECTION('',(-1.,0.E+000,0.E+000));
#1554 = ADVANCED_FACE('',(#1555),#1571,.F.);
#1555 = FACE_BOUND('',#1556,.F.);
#1556 = EDGE_LOOP('',(#1557,#1558,#1564,#1565));
#1557 = ORIENTED_EDGE('',*,*,#1536,.T.);
#1558 = ORIENTED_EDGE('',*,*,#1559,.T.);
#1559 = EDGE_CURVE('',#1529,#1459,#1560,.T.);
#1560 = LINE('',#1561,#1562);
#1561 = CARTESIAN_POINT('',(-0.1999996,0.15000224,4.99999E-002));
#1562 = VECTOR('',#1563,1.);
#1563 = DIRECTION('',(0.E+000,-1.,0.E+000));
#1564 = ORIENTED_EDGE('',*,*,#1456,.F.);
#1565 = ORIENTED_EDGE('',*,*,#1566,.F.);
#1566 = EDGE_CURVE('',#1537,#1457,#1567,.T.);
#1567 = LINE('',#1568,#1569);
#1568 = CARTESIAN_POINT('',(-0.1999996,0.15000224,0.E+000));
#1569 = VECTOR('',#1570,1.);
#1570 = DIRECTION('',(0.E+000,-1.,0.E+000));
#1571 = PLANE('',#1572);
#1572 = AXIS2_PLACEMENT_3D('',#1573,#1574,#1575);
#1573 = CARTESIAN_POINT('',(-0.1999996,0.15000224,0.E+000));
#1574 = DIRECTION('',(1.,0.E+000,-0.E+000));
#1575 = DIRECTION('',(0.E+000,-1.,0.E+000));
#1576 = ADVANCED_FACE('',(#1577),#1583,.T.);
#1577 = FACE_BOUND('',#1578,.F.);
#1578 = EDGE_LOOP('',(#1579,#1580,#1581,#1582));
#1579 = ORIENTED_EDGE('',*,*,#1482,.T.);
#1580 = ORIENTED_EDGE('',*,*,#1513,.T.);
#1581 = ORIENTED_EDGE('',*,*,#1544,.T.);
#1582 = ORIENTED_EDGE('',*,*,#1566,.T.);
#1583 = PLANE('',#1584);
#1584 = AXIS2_PLACEMENT_3D('',#1585,#1586,#1587);
#1585 = CARTESIAN_POINT('',(-0.1999996,-0.1499997,0.E+000));
#1586 = DIRECTION('',(0.E+000,0.E+000,-1.));
#1587 = DIRECTION('',(-1.,0.E+000,-0.E+000));
#1588 = ADVANCED_FACE('',(#1589),#1595,.F.);
#1589 = FACE_BOUND('',#1590,.T.);
#1590 = EDGE_LOOP('',(#1591,#1592,#1593,#1594));
#1591 = ORIENTED_EDGE('',*,*,#1466,.T.);
#1592 = ORIENTED_EDGE('',*,*,#1497,.T.);
#1593 = ORIENTED_EDGE('',*,*,#1528,.T.);
#1594 = ORIENTED_EDGE('',*,*,#1559,.T.);
#1595 = PLANE('',#1596);
#1596 = AXIS2_PLACEMENT_3D('',#1597,#1598,#1599);
#1597 = CARTESIAN_POINT('',(-0.1999996,-0.1499997,4.99999E-002));
#1598 = DIRECTION('',(0.E+000,0.E+000,-1.));
#1599 = DIRECTION('',(-1.,0.E+000,-0.E+000));
#1600 = ( GEOMETRIC_REPRESENTATION_CONTEXT(3) 
GLOBAL_UNCERTAINTY_ASSIGNED_CONTEXT((#1604)) 
GLOBAL_UNIT_ASSIGNED_CONTEXT((#1601,#1602,#1603)) REPRESENTATION_CONTEXT
('Context #1','3D Context with UNIT and UNCERTAINTY') );
#1601 = ( LENGTH_UNIT() NAMED_UNIT(*) SI_UNIT(.MILLI.,.METRE.) );
#1602 = ( NAMED_UNIT(*) PLANE_ANGLE_UNIT() SI_UNIT($,.RADIAN.) );
#1603 = ( NAMED_UNIT(*) SI_UNIT($,.STERADIAN.) SOLID_ANGLE_UNIT() );
#1604 = UNCERTAINTY_MEASURE_WITH_UNIT(LENGTH_MEASURE(1.E-007),#1601,
  'distance_accuracy_value','confusion accuracy');
#1605 = SHAPE_DEFINITION_REPRESENTATION(#1606,#1449);
#1606 = PRODUCT_DEFINITION_SHAPE('','',#1607);
#1607 = PRODUCT_DEFINITION('design','',#1608,#1611);
#1608 = PRODUCT_DEFINITION_FORMATION('','',#1609);
#1609 = PRODUCT('Extruded','Extruded','',(#1610));
#1610 = PRODUCT_CONTEXT('',#2,'mechanical');
#1611 = PRODUCT_DEFINITION_CONTEXT('part definition',#2,'design');
#1612 = CONTEXT_DEPENDENT_SHAPE_REPRESENTATION(#1613,#1615);
#1613 = ( REPRESENTATION_RELATIONSHIP('','',#1449,#1439) 
REPRESENTATION_RELATIONSHIP_WITH_TRANSFORMATION(#1614) 
SHAPE_REPRESENTATION_RELATIONSHIP() );
#1614 = ITEM_DEFINED_TRANSFORMATION('','',#11,#1440);
#1615 = PRODUCT_DEFINITION_SHAPE('Placement','Placement of an item',
  #1616);
#1616 = NEXT_ASSEMBLY_USAGE_OCCURRENCE('18','2','',#1434,#1607,$);
#1617 = PRODUCT_RELATED_PRODUCT_CATEGORY('part',$,(#1609));
#1618 = CONTEXT_DEPENDENT_SHAPE_REPRESENTATION(#1619,#1621);
#1619 = ( REPRESENTATION_RELATIONSHIP('','',#1439,#1030) 
REPRESENTATION_RELATIONSHIP_WITH_TRANSFORMATION(#1620) 
SHAPE_REPRESENTATION_RELATIONSHIP() );
#1620 = ITEM_DEFINED_TRANSFORMATION('','',#11,#1039);
#1621 = PRODUCT_DEFINITION_SHAPE('Placement','Placement of an item',
  #1622);
#1622 = NEXT_ASSEMBLY_USAGE_OCCURRENCE('19','','',#1025,#1434,$);
#1623 = PRODUCT_RELATED_PRODUCT_CATEGORY('part',$,(#1436));
#1624 = CONTEXT_DEPENDENT_SHAPE_REPRESENTATION(#1625,#1627);
#1625 = ( REPRESENTATION_RELATIONSHIP('','',#1030,#10) 
REPRESENTATION_RELATIONSHIP_WITH_TRANSFORMATION(#1626) 
SHAPE_REPRESENTATION_RELATIONSHIP() );
#1626 = ITEM_DEFINED_TRANSFORMATION('','',#11,#19);
#1627 = PRODUCT_DEFINITION_SHAPE('Placement','Placement of an item',
  #1628);
#1628 = NEXT_ASSEMBLY_USAGE_OCCURRENCE('20','','',#5,#1025,$);
#1629 = PRODUCT_RELATED_PRODUCT_CATEGORY('part',$,(#1027));
#1630 = MECHANICAL_DESIGN_GEOMETRIC_PRESENTATION_REPRESENTATION('',(
    #1631),#58);
#1631 = STYLED_ITEM('color',(#1632),#64);
#1632 = PRESENTATION_STYLE_ASSIGNMENT((#1633,#1639));
#1633 = SURFACE_STYLE_USAGE(.BOTH.,#1634);
#1634 = SURFACE_SIDE_STYLE('',(#1635));
#1635 = SURFACE_STYLE_FILL_AREA(#1636);
#1636 = FILL_AREA_STYLE('',(#1637));
#1637 = FILL_AREA_STYLE_COLOUR('',#1638);
#1638 = COLOUR_RGB('',0.E+000,0.501960813999,0.E+000);
#1639 = CURVE_STYLE('',#1640,POSITIVE_LENGTH_MEASURE(0.1),#1638);
#1640 = DRAUGHTING_PRE_DEFINED_CURVE_FONT('continuous');
#1641 = MECHANICAL_DESIGN_GEOMETRIC_PRESENTATION_REPRESENTATION('',(
    #1642),#1408);
#1642 = STYLED_ITEM('color',(#1643),#1258);
#1643 = PRESENTATION_STYLE_ASSIGNMENT((#1644,#1650));
#1644 = SURFACE_STYLE_USAGE(.BOTH.,#1645);
#1645 = SURFACE_SIDE_STYLE('',(#1646));
#1646 = SURFACE_STYLE_FILL_AREA(#1647);
#1647 = FILL_AREA_STYLE('',(#1648));
#1648 = FILL_AREA_STYLE_COLOUR('',#1649);
#1649 = DRAUGHTING_PRE_DEFINED_COLOUR('yellow');
#1650 = CURVE_STYLE('',#1651,POSITIVE_LENGTH_MEASURE(0.1),#1649);
#1651 = DRAUGHTING_PRE_DEFINED_CURVE_FONT('continuous');
#1652 = MECHANICAL_DESIGN_GEOMETRIC_PRESENTATION_REPRESENTATION('',(
    #1653),#1600);
#1653 = STYLED_ITEM('color',(#1654),#1450);
#1654 = PRESENTATION_STYLE_ASSIGNMENT((#1655,#1661));
#1655 = SURFACE_STYLE_USAGE(.BOTH.,#1656);
#1656 = SURFACE_SIDE_STYLE('',(#1657));
#1657 = SURFACE_STYLE_FILL_AREA(#1658);
#1658 = FILL_AREA_STYLE('',(#1659));
#1659 = FILL_AREA_STYLE_COLOUR('',#1660);
#1660 = COLOUR_RGB('',0.219607844949,0.46274510026,0.113725490868);
#1661 = CURVE_STYLE('',#1662,POSITIVE_LENGTH_MEASURE(0.1),#1660);
#1662 = DRAUGHTING_PRE_DEFINED_CURVE_FONT('continuous');
#1663 = MECHANICAL_DESIGN_GEOMETRIC_PRESENTATION_REPRESENTATION('',(
    #1664),#1216);
#1664 = STYLED_ITEM('color',(#1665),#1066);
#1665 = PRESENTATION_STYLE_ASSIGNMENT((#1666,#1672));
#1666 = SURFACE_STYLE_USAGE(.BOTH.,#1667);
#1667 = SURFACE_SIDE_STYLE('',(#1668));
#1668 = SURFACE_STYLE_FILL_AREA(#1669);
#1669 = FILL_AREA_STYLE('',(#1670));
#1670 = FILL_AREA_STYLE_COLOUR('',#1671);
#1671 = COLOUR_RGB('',0.952941179276,0.952941179276,0.952941179276);
#1672 = CURVE_STYLE('',#1673,POSITIVE_LENGTH_MEASURE(0.1),#1671);
#1673 = DRAUGHTING_PRE_DEFINED_CURVE_FONT('continuous');
ENDSEC;
END-ISO-10303-21;
